{
    "TrainingPrograms": [
        {
            "TrainingProgramEndDate": "2014-01-05 10:00",
            "TrainingProgramStartDate": "2014-01-04 00:00",
            "AnsweredRequests": [
                {
                    "PositionID": null,
                    "TrainingRequestID": 100000000,
                    "PositionName": null,
                    "ParticipantID": null
                }
            ],
            "ScheduledStatus": true,
            "MasterPlanID": 9528,
            "TrainingRequestID": 100000000,
            "Events": [
                {
                    "ActivityStartDate": "2014-01-04 00:00",
                    "ActivityID": 4532,
                    "ResourceAllocations": [
                        {
                            "AssignedResourceID": 66,
                            "RequirementStartTimeDelta": 0,
                            "CertificationRequirementIDs": null,
                            "AllocationStartTime": "2014-01-04 00:00",
                            "RequirementResourceTypeName": "A320-FFS",
                            "RequirementEndTimeDelta": 0,
                            "ResourceRequirementID": 5824,
                            "AllocationEndTime": "2014-01-04 10:00",
                            "RequirementResourceTypeID": 160
                        },
                        {
                            "AssignedResourceID": 89,
                            "RequirementStartTimeDelta": 0,
                            "CertificationRequirementIDs": null,
                            "AllocationStartTime": "2014-01-04 00:00",
                            "RequirementResourceTypeName": "A320 Flight Instructor",
                            "RequirementEndTimeDelta": 0,
                            "ResourceRequirementID": 5819,
                            "AllocationEndTime": "2014-01-04 10:00",
                            "RequirementResourceTypeID": 138
                        }
                    ]
                },
                {
                    "ActivityStartDate": "2014-01-05 00:00",
                    "ActivityID": 4533,
                    "ResourceAllocations": [
                        {
                            "AssignedResourceID": 69,
                            "RequirementStartTimeDelta": 0,
                            "CertificationRequirementIDs": null,
                            "AllocationStartTime": "2014-01-05 00:00",
                            "RequirementResourceTypeName": "Rooms",
                            "RequirementEndTimeDelta": 0,
                            "ResourceRequirementID": 5821,
                            "AllocationEndTime": "2014-01-05 10:00",
                            "RequirementResourceTypeID": 27
                        },
                        {
                            "AssignedResourceID": 89,
                            "RequirementStartTimeDelta": 0,
                            "CertificationRequirementIDs": null,
                            "AllocationStartTime": "2014-01-05 00:00",
                            "RequirementResourceTypeName": "A320 Flight Instructor",
                            "RequirementEndTimeDelta": 0,
                            "ResourceRequirementID": 5822,
                            "AllocationEndTime": "2014-01-05 10:00",
                            "RequirementResourceTypeID": 138
                        },
                        {
                            "AssignedResourceID": 104,
                            "RequirementStartTimeDelta": 0,
                            "CertificationRequirementIDs": null,
                            "AllocationStartTime": "2014-01-05 00:00",
                            "RequirementResourceTypeName": "A320 Ground Instructor",
                            "RequirementEndTimeDelta": 0,
                            "ResourceRequirementID": 5823,
                            "AllocationEndTime": "2014-01-05 10:00",
                            "RequirementResourceTypeID": 162
                        }
                    ]
                }
            ]
        },
        {
            "TrainingProgramEndDate": "2014-01-05 10:00",
            "TrainingProgramStartDate": "2014-01-04 00:00",
            "AnsweredRequests": [
                {
                    "PositionID": null,
                    "TrainingRequestID": 100000001,
                    "PositionName": null,
                    "ParticipantID": null
                }
            ],
            "ScheduledStatus": true,
            "MasterPlanID": 9528,
            "TrainingRequestID": 100000001,
            "Events": [
                {
                    "ActivityStartDate": "2014-01-04 00:00",
                    "ActivityID": 4532,
                    "ResourceAllocations": [
                        {
                            "AssignedResourceID": 66,
                            "RequirementStartTimeDelta": 0,
                            "CertificationRequirementIDs": null,
                            "AllocationStartTime": "2014-01-04 00:00",
                            "RequirementResourceTypeName": "A320-FFS",
                            "RequirementEndTimeDelta": 0,
                            "ResourceRequirementID": 5824,
                            "AllocationEndTime": "2014-01-04 10:00",
                            "RequirementResourceTypeID": 160
                        },
                        {
                            "AssignedResourceID": 89,
                            "RequirementStartTimeDelta": 0,
                            "CertificationRequirementIDs": null,
                            "AllocationStartTime": "2014-01-04 00:00",
                            "RequirementResourceTypeName": "A320 Flight Instructor",
                            "RequirementEndTimeDelta": 0,
                            "ResourceRequirementID": 5819,
                            "AllocationEndTime": "2014-01-04 10:00",
                            "RequirementResourceTypeID": 138
                        }
                    ]
                },
                {
                    "ActivityStartDate": "2014-01-05 00:00",
                    "ActivityID": 4533,
                    "ResourceAllocations": [
                        {
                            "AssignedResourceID": 69,
                            "RequirementStartTimeDelta": 0,
                            "CertificationRequirementIDs": null,
                            "AllocationStartTime": "2014-01-05 00:00",
                            "RequirementResourceTypeName": "Rooms",
                            "RequirementEndTimeDelta": 0,
                            "ResourceRequirementID": 5821,
                            "AllocationEndTime": "2014-01-05 10:00",
                            "RequirementResourceTypeID": 27
                        },
                        {
                            "AssignedResourceID": 89,
                            "RequirementStartTimeDelta": 0,
                            "CertificationRequirementIDs": null,
                            "AllocationStartTime": "2014-01-05 00:00",
                            "RequirementResourceTypeName": "A320 Flight Instructor",
                            "RequirementEndTimeDelta": 0,
                            "ResourceRequirementID": 5822,
                            "AllocationEndTime": "2014-01-05 10:00",
                            "RequirementResourceTypeID": 138
                        },
                        {
                            "AssignedResourceID": 104,
                            "RequirementStartTimeDelta": 0,
                            "CertificationRequirementIDs": null,
                            "AllocationStartTime": "2014-01-05 00:00",
                            "RequirementResourceTypeName": "A320 Ground Instructor",
                            "RequirementEndTimeDelta": 0,
                            "ResourceRequirementID": 5823,
                            "AllocationEndTime": "2014-01-05 10:00",
                            "RequirementResourceTypeID": 162
                        }
                    ]
                }
            ]
        },
        {
            "TrainingProgramEndDate": "2014-01-05 10:00",
            "TrainingProgramStartDate": "2014-01-04 00:00",
            "AnsweredRequests": [
                {
                    "PositionID": null,
                    "TrainingRequestID": 100000002,
                    "PositionName": null,
                    "ParticipantID": null
                }
            ],
            "ScheduledStatus": true,
            "MasterPlanID": 9528,
            "TrainingRequestID": 100000002,
            "Events": [
                {
                    "ActivityStartDate": "2014-01-05 00:00",
                    "ActivityID": 4532,
                    "ResourceAllocations": [
                        {
                            "AssignedResourceID": 66,
                            "RequirementStartTimeDelta": 0,
                            "CertificationRequirementIDs": null,
                            "AllocationStartTime": "2014-01-05 00:00",
                            "RequirementResourceTypeName": "A320-FFS",
                            "RequirementEndTimeDelta": 0,
                            "ResourceRequirementID": 5824,
                            "AllocationEndTime": "2014-01-05 10:00",
                            "RequirementResourceTypeID": 160
                        },
                        {
                            "AssignedResourceID": 89,
                            "RequirementStartTimeDelta": 0,
                            "CertificationRequirementIDs": null,
                            "AllocationStartTime": "2014-01-05 00:00",
                            "RequirementResourceTypeName": "A320 Flight Instructor",
                            "RequirementEndTimeDelta": 0,
                            "ResourceRequirementID": 5819,
                            "AllocationEndTime": "2014-01-05 10:00",
                            "RequirementResourceTypeID": 138
                        }
                    ]
                },
                {
                    "ActivityStartDate": "2014-01-04 00:00",
                    "ActivityID": 4533,
                    "ResourceAllocations": [
                        {
                            "AssignedResourceID": 69,
                            "RequirementStartTimeDelta": 0,
                            "CertificationRequirementIDs": null,
                            "AllocationStartTime": "2014-01-04 00:00",
                            "RequirementResourceTypeName": "Rooms",
                            "RequirementEndTimeDelta": 0,
                            "ResourceRequirementID": 5821,
                            "AllocationEndTime": "2014-01-04 10:00",
                            "RequirementResourceTypeID": 27
                        },
                        {
                            "AssignedResourceID": 89,
                            "RequirementStartTimeDelta": 0,
                            "CertificationRequirementIDs": null,
                            "AllocationStartTime": "2014-01-04 00:00",
                            "RequirementResourceTypeName": "A320 Flight Instructor",
                            "RequirementEndTimeDelta": 0,
                            "ResourceRequirementID": 5822,
                            "AllocationEndTime": "2014-01-04 10:00",
                            "RequirementResourceTypeID": 138
                        },
                        {
                            "AssignedResourceID": 104,
                            "RequirementStartTimeDelta": 0,
                            "CertificationRequirementIDs": null,
                            "AllocationStartTime": "2014-01-04 00:00",
                            "RequirementResourceTypeName": "A320 Ground Instructor",
                            "RequirementEndTimeDelta": 0,
                            "ResourceRequirementID": 5823,
                            "AllocationEndTime": "2014-01-04 10:00",
                            "RequirementResourceTypeID": 162
                        }
                    ]
                }
            ]
        },
        {
            "TrainingProgramEndDate": "2014-01-05 04:00",
            "TrainingProgramStartDate": "2014-01-03 00:00",
            "AnsweredRequests": [
                {
                    "PositionID": null,
                    "TrainingRequestID": 100000003,
                    "PositionName": null,
                    "ParticipantID": null
                }
            ],
            "ScheduledStatus": true,
            "MasterPlanID": 7315,
            "TrainingRequestID": 100000003,
            "Events": [
                {
                    "ActivityStartDate": "2014-01-05 00:00",
                    "ActivityID": 3361,
                    "ResourceAllocations": [
                        {
                            "AssignedResourceID": 69,
                            "RequirementStartTimeDelta": 0,
                            "CertificationRequirementIDs": null,
                            "AllocationStartTime": "2014-01-05 00:00",
                            "RequirementResourceTypeName": "Rooms",
                            "RequirementEndTimeDelta": 0,
                            "ResourceRequirementID": 3472,
                            "AllocationEndTime": "2014-01-05 03:00",
                            "RequirementResourceTypeID": 27
                        },
                        {
                            "AssignedResourceID": 104,
                            "RequirementStartTimeDelta": 0,
                            "CertificationRequirementIDs": null,
                            "AllocationStartTime": "2014-01-05 00:00",
                            "RequirementResourceTypeName": "A320 Ground Instructor",
                            "RequirementEndTimeDelta": 0,
                            "ResourceRequirementID": 3467,
                            "AllocationEndTime": "2014-01-05 03:00",
                            "RequirementResourceTypeID": 162
                        }
                    ]
                },
                {
                    "ActivityStartDate": "2014-01-04 00:00",
                    "ActivityID": 3362,
                    "ResourceAllocations": [
                        {
                            "AssignedResourceID": 69,
                            "RequirementStartTimeDelta": 0,
                            "CertificationRequirementIDs": null,
                            "AllocationStartTime": "2014-01-04 00:00",
                            "RequirementResourceTypeName": "Rooms",
                            "RequirementEndTimeDelta": 0,
                            "ResourceRequirementID": 3473,
                            "AllocationEndTime": "2014-01-04 03:00",
                            "RequirementResourceTypeID": 27
                        },
                        {
                            "AssignedResourceID": 104,
                            "RequirementStartTimeDelta": 0,
                            "CertificationRequirementIDs": null,
                            "AllocationStartTime": "2014-01-04 00:00",
                            "RequirementResourceTypeName": "A320 Ground Instructor",
                            "RequirementEndTimeDelta": 0,
                            "ResourceRequirementID": 3468,
                            "AllocationEndTime": "2014-01-04 03:00",
                            "RequirementResourceTypeID": 162
                        }
                    ]
                },
                {
                    "ActivityStartDate": "2014-01-05 00:00",
                    "ActivityID": 3363,
                    "ResourceAllocations": [
                        {
                            "AssignedResourceID": 69,
                            "RequirementStartTimeDelta": 0,
                            "CertificationRequirementIDs": null,
                            "AllocationStartTime": "2014-01-05 00:00",
                            "RequirementResourceTypeName": "Rooms",
                            "RequirementEndTimeDelta": 0,
                            "ResourceRequirementID": 3474,
                            "AllocationEndTime": "2014-01-05 03:00",
                            "RequirementResourceTypeID": 27
                        },
                        {
                            "AssignedResourceID": 104,
                            "RequirementStartTimeDelta": 0,
                            "CertificationRequirementIDs": null,
                            "AllocationStartTime": "2014-01-05 00:00",
                            "RequirementResourceTypeName": "A320 Ground Instructor",
                            "RequirementEndTimeDelta": 0,
                            "ResourceRequirementID": 3469,
                            "AllocationEndTime": "2014-01-05 03:00",
                            "RequirementResourceTypeID": 162
                        }
                    ]
                },
                {
                    "ActivityStartDate": "2014-01-04 00:00",
                    "ActivityID": 3364,
                    "ResourceAllocations": [
                        {
                            "AssignedResourceID": 69,
                            "RequirementStartTimeDelta": 0,
                            "CertificationRequirementIDs": null,
                            "AllocationStartTime": "2014-01-04 00:00",
                            "RequirementResourceTypeName": "Rooms",
                            "RequirementEndTimeDelta": 0,
                            "ResourceRequirementID": 3475,
                            "AllocationEndTime": "2014-01-04 03:00",
                            "RequirementResourceTypeID": 27
                        },
                        {
                            "AssignedResourceID": 104,
                            "RequirementStartTimeDelta": 0,
                            "CertificationRequirementIDs": null,
                            "AllocationStartTime": "2014-01-04 00:00",
                            "RequirementResourceTypeName": "A320 Ground Instructor",
                            "RequirementEndTimeDelta": 0,
                            "ResourceRequirementID": 3470,
                            "AllocationEndTime": "2014-01-04 03:00",
                            "RequirementResourceTypeID": 162
                        }
                    ]
                },
                {
                    "ActivityStartDate": "2014-01-05 00:00",
                    "ActivityID": 3365,
                    "ResourceAllocations": [
                        {
                            "AssignedResourceID": 69,
                            "RequirementStartTimeDelta": 0,
                            "CertificationRequirementIDs": null,
                            "AllocationStartTime": "2014-01-05 00:00",
                            "RequirementResourceTypeName": "Rooms",
                            "RequirementEndTimeDelta": 0,
                            "ResourceRequirementID": 3476,
                            "AllocationEndTime": "2014-01-05 04:00",
                            "RequirementResourceTypeID": 27
                        },
                        {
                            "AssignedResourceID": 104,
                            "RequirementStartTimeDelta": 0,
                            "CertificationRequirementIDs": null,
                            "AllocationStartTime": "2014-01-05 00:00",
                            "RequirementResourceTypeName": "A320 Ground Instructor",
                            "RequirementEndTimeDelta": 0,
                            "ResourceRequirementID": 3471,
                            "AllocationEndTime": "2014-01-05 04:00",
                            "RequirementResourceTypeID": 162
                        }
                    ]
                },
                {
                    "ActivityStartDate": "2014-01-03 00:00",
                    "ActivityID": 3366,
                    "ResourceAllocations": [
                        {
                            "AssignedResourceID": 89,
                            "RequirementStartTimeDelta": 0,
                            "CertificationRequirementIDs": null,
                            "AllocationStartTime": "2014-01-03 00:00",
                            "RequirementResourceTypeName": "A320 Flight Instructor",
                            "RequirementEndTimeDelta": 0,
                            "ResourceRequirementID": 3477,
                            "AllocationEndTime": "2014-01-03 02:00",
                            "RequirementResourceTypeID": 138
                        },
                        {
                            "AssignedResourceID": 69,
                            "RequirementStartTimeDelta": 0,
                            "CertificationRequirementIDs": null,
                            "AllocationStartTime": "2014-01-03 00:00",
                            "RequirementResourceTypeName": "Rooms",
                            "RequirementEndTimeDelta": 0,
                            "ResourceRequirementID": 3479,
                            "AllocationEndTime": "2014-01-03 02:00",
                            "RequirementResourceTypeID": 27
                        }
                    ]
                },
                {
                    "ActivityStartDate": "2014-01-04 00:00",
                    "ActivityID": 3367,
                    "ResourceAllocations": [
                        {
                            "AssignedResourceID": 89,
                            "RequirementStartTimeDelta": 0,
                            "CertificationRequirementIDs": null,
                            "AllocationStartTime": "2014-01-04 00:00",
                            "RequirementResourceTypeName": "A320 Flight Instructor",
                            "RequirementEndTimeDelta": 0,
                            "ResourceRequirementID": 3481,
                            "AllocationEndTime": "2014-01-04 08:00",
                            "RequirementResourceTypeID": 138
                        },
                        {
                            "AssignedResourceID": 66,
                            "RequirementStartTimeDelta": 0,
                            "CertificationRequirementIDs": null,
                            "AllocationStartTime": "2014-01-04 00:00",
                            "RequirementResourceTypeName": "A320-FFS",
                            "RequirementEndTimeDelta": 0,
                            "ResourceRequirementID": 3482,
                            "AllocationEndTime": "2014-01-04 08:00",
                            "RequirementResourceTypeID": 160
                        }
                    ]
                },
                {
                    "ActivityStartDate": "2014-01-03 00:00",
                    "ActivityID": 3368,
                    "ResourceAllocations": [
                        {
                            "AssignedResourceID": 69,
                            "RequirementStartTimeDelta": 0,
                            "CertificationRequirementIDs": null,
                            "AllocationStartTime": "2014-01-03 00:00",
                            "RequirementResourceTypeName": "Rooms",
                            "RequirementEndTimeDelta": 0,
                            "ResourceRequirementID": 3480,
                            "AllocationEndTime": "2014-01-03 02:00",
                            "RequirementResourceTypeID": 27
                        },
                        {
                            "AssignedResourceID": 89,
                            "RequirementStartTimeDelta": 0,
                            "CertificationRequirementIDs": null,
                            "AllocationStartTime": "2014-01-03 00:00",
                            "RequirementResourceTypeName": "A320 Flight Instructor",
                            "RequirementEndTimeDelta": 0,
                            "ResourceRequirementID": 3478,
                            "AllocationEndTime": "2014-01-03 02:00",
                            "RequirementResourceTypeID": 138
                        }
                    ]
                },
                {
                    "ActivityStartDate": "2014-01-03 00:00",
                    "ActivityID": 3369,
                    "ResourceAllocations": []
                },
                {
                    "ActivityStartDate": "2014-01-05 00:00",
                    "ActivityID": 3370,
                    "ResourceAllocations": []
                },
                {
                    "ActivityStartDate": "2014-01-03 00:00",
                    "ActivityID": 3371,
                    "ResourceAllocations": []
                }
            ]
        },
        {
            "TrainingProgramEndDate": "2014-01-05 08:00",
            "TrainingProgramStartDate": "2014-01-03 00:00",
            "AnsweredRequests": [
                {
                    "PositionID": null,
                    "TrainingRequestID": 100000004,
                    "PositionName": null,
                    "ParticipantID": null
                }
            ],
            "ScheduledStatus": true,
            "MasterPlanID": 7315,
            "TrainingRequestID": 100000004,
            "Events": [
                {
                    "ActivityStartDate": "2014-01-03 00:00",
                    "ActivityID": 3361,
                    "ResourceAllocations": [
                        {
                            "AssignedResourceID": 69,
                            "RequirementStartTimeDelta": 0,
                            "CertificationRequirementIDs": null,
                            "AllocationStartTime": "2014-01-03 00:00",
                            "RequirementResourceTypeName": "Rooms",
                            "RequirementEndTimeDelta": 0,
                            "ResourceRequirementID": 3472,
                            "AllocationEndTime": "2014-01-03 03:00",
                            "RequirementResourceTypeID": 27
                        },
                        {
                            "AssignedResourceID": 104,
                            "RequirementStartTimeDelta": 0,
                            "CertificationRequirementIDs": null,
                            "AllocationStartTime": "2014-01-03 00:00",
                            "RequirementResourceTypeName": "A320 Ground Instructor",
                            "RequirementEndTimeDelta": 0,
                            "ResourceRequirementID": 3467,
                            "AllocationEndTime": "2014-01-03 03:00",
                            "RequirementResourceTypeID": 162
                        }
                    ]
                },
                {
                    "ActivityStartDate": "2014-01-04 00:00",
                    "ActivityID": 3362,
                    "ResourceAllocations": [
                        {
                            "AssignedResourceID": 69,
                            "RequirementStartTimeDelta": 0,
                            "CertificationRequirementIDs": null,
                            "AllocationStartTime": "2014-01-04 00:00",
                            "RequirementResourceTypeName": "Rooms",
                            "RequirementEndTimeDelta": 0,
                            "ResourceRequirementID": 3473,
                            "AllocationEndTime": "2014-01-04 03:00",
                            "RequirementResourceTypeID": 27
                        },
                        {
                            "AssignedResourceID": 104,
                            "RequirementStartTimeDelta": 0,
                            "CertificationRequirementIDs": null,
                            "AllocationStartTime": "2014-01-04 00:00",
                            "RequirementResourceTypeName": "A320 Ground Instructor",
                            "RequirementEndTimeDelta": 0,
                            "ResourceRequirementID": 3468,
                            "AllocationEndTime": "2014-01-04 03:00",
                            "RequirementResourceTypeID": 162
                        }
                    ]
                },
                {
                    "ActivityStartDate": "2014-01-04 00:00",
                    "ActivityID": 3363,
                    "ResourceAllocations": [
                        {
                            "AssignedResourceID": 69,
                            "RequirementStartTimeDelta": 0,
                            "CertificationRequirementIDs": null,
                            "AllocationStartTime": "2014-01-04 00:00",
                            "RequirementResourceTypeName": "Rooms",
                            "RequirementEndTimeDelta": 0,
                            "ResourceRequirementID": 3474,
                            "AllocationEndTime": "2014-01-04 03:00",
                            "RequirementResourceTypeID": 27
                        },
                        {
                            "AssignedResourceID": 104,
                            "RequirementStartTimeDelta": 0,
                            "CertificationRequirementIDs": null,
                            "AllocationStartTime": "2014-01-04 00:00",
                            "RequirementResourceTypeName": "A320 Ground Instructor",
                            "RequirementEndTimeDelta": 0,
                            "ResourceRequirementID": 3469,
                            "AllocationEndTime": "2014-01-04 03:00",
                            "RequirementResourceTypeID": 162
                        }
                    ]
                },
                {
                    "ActivityStartDate": "2014-01-03 00:00",
                    "ActivityID": 3364,
                    "ResourceAllocations": [
                        {
                            "AssignedResourceID": 69,
                            "RequirementStartTimeDelta": 0,
                            "CertificationRequirementIDs": null,
                            "AllocationStartTime": "2014-01-03 00:00",
                            "RequirementResourceTypeName": "Rooms",
                            "RequirementEndTimeDelta": 0,
                            "ResourceRequirementID": 3475,
                            "AllocationEndTime": "2014-01-03 03:00",
                            "RequirementResourceTypeID": 27
                        },
                        {
                            "AssignedResourceID": 104,
                            "RequirementStartTimeDelta": 0,
                            "CertificationRequirementIDs": null,
                            "AllocationStartTime": "2014-01-03 00:00",
                            "RequirementResourceTypeName": "A320 Ground Instructor",
                            "RequirementEndTimeDelta": 0,
                            "ResourceRequirementID": 3470,
                            "AllocationEndTime": "2014-01-03 03:00",
                            "RequirementResourceTypeID": 162
                        }
                    ]
                },
                {
                    "ActivityStartDate": "2014-01-04 00:00",
                    "ActivityID": 3365,
                    "ResourceAllocations": [
                        {
                            "AssignedResourceID": 69,
                            "RequirementStartTimeDelta": 0,
                            "CertificationRequirementIDs": null,
                            "AllocationStartTime": "2014-01-04 00:00",
                            "RequirementResourceTypeName": "Rooms",
                            "RequirementEndTimeDelta": 0,
                            "ResourceRequirementID": 3476,
                            "AllocationEndTime": "2014-01-04 04:00",
                            "RequirementResourceTypeID": 27
                        },
                        {
                            "AssignedResourceID": 104,
                            "RequirementStartTimeDelta": 0,
                            "CertificationRequirementIDs": null,
                            "AllocationStartTime": "2014-01-04 00:00",
                            "RequirementResourceTypeName": "A320 Ground Instructor",
                            "RequirementEndTimeDelta": 0,
                            "ResourceRequirementID": 3471,
                            "AllocationEndTime": "2014-01-04 04:00",
                            "RequirementResourceTypeID": 162
                        }
                    ]
                },
                {
                    "ActivityStartDate": "2014-01-04 00:00",
                    "ActivityID": 3366,
                    "ResourceAllocations": [
                        {
                            "AssignedResourceID": 89,
                            "RequirementStartTimeDelta": 0,
                            "CertificationRequirementIDs": null,
                            "AllocationStartTime": "2014-01-04 00:00",
                            "RequirementResourceTypeName": "A320 Flight Instructor",
                            "RequirementEndTimeDelta": 0,
                            "ResourceRequirementID": 3477,
                            "AllocationEndTime": "2014-01-04 02:00",
                            "RequirementResourceTypeID": 138
                        },
                        {
                            "AssignedResourceID": 69,
                            "RequirementStartTimeDelta": 0,
                            "CertificationRequirementIDs": null,
                            "AllocationStartTime": "2014-01-04 00:00",
                            "RequirementResourceTypeName": "Rooms",
                            "RequirementEndTimeDelta": 0,
                            "ResourceRequirementID": 3479,
                            "AllocationEndTime": "2014-01-04 02:00",
                            "RequirementResourceTypeID": 27
                        }
                    ]
                },
                {
                    "ActivityStartDate": "2014-01-05 00:00",
                    "ActivityID": 3367,
                    "ResourceAllocations": [
                        {
                            "AssignedResourceID": 89,
                            "RequirementStartTimeDelta": 0,
                            "CertificationRequirementIDs": null,
                            "AllocationStartTime": "2014-01-05 00:00",
                            "RequirementResourceTypeName": "A320 Flight Instructor",
                            "RequirementEndTimeDelta": 0,
                            "ResourceRequirementID": 3481,
                            "AllocationEndTime": "2014-01-05 08:00",
                            "RequirementResourceTypeID": 138
                        },
                        {
                            "AssignedResourceID": 66,
                            "RequirementStartTimeDelta": 0,
                            "CertificationRequirementIDs": null,
                            "AllocationStartTime": "2014-01-05 00:00",
                            "RequirementResourceTypeName": "A320-FFS",
                            "RequirementEndTimeDelta": 0,
                            "ResourceRequirementID": 3482,
                            "AllocationEndTime": "2014-01-05 08:00",
                            "RequirementResourceTypeID": 160
                        }
                    ]
                },
                {
                    "ActivityStartDate": "2014-01-03 00:00",
                    "ActivityID": 3368,
                    "ResourceAllocations": [
                        {
                            "AssignedResourceID": 69,
                            "RequirementStartTimeDelta": 0,
                            "CertificationRequirementIDs": null,
                            "AllocationStartTime": "2014-01-03 00:00",
                            "RequirementResourceTypeName": "Rooms",
                            "RequirementEndTimeDelta": 0,
                            "ResourceRequirementID": 3480,
                            "AllocationEndTime": "2014-01-03 02:00",
                            "RequirementResourceTypeID": 27
                        },
                        {
                            "AssignedResourceID": 89,
                            "RequirementStartTimeDelta": 0,
                            "CertificationRequirementIDs": null,
                            "AllocationStartTime": "2014-01-03 00:00",
                            "RequirementResourceTypeName": "A320 Flight Instructor",
                            "RequirementEndTimeDelta": 0,
                            "ResourceRequirementID": 3478,
                            "AllocationEndTime": "2014-01-03 02:00",
                            "RequirementResourceTypeID": 138
                        }
                    ]
                },
                {
                    "ActivityStartDate": "2014-01-04 00:00",
                    "ActivityID": 3369,
                    "ResourceAllocations": []
                },
                {
                    "ActivityStartDate": "2014-01-05 00:00",
                    "ActivityID": 3370,
                    "ResourceAllocations": []
                },
                {
                    "ActivityStartDate": "2014-01-05 00:00",
                    "ActivityID": 3371,
                    "ResourceAllocations": []
                }
            ]
        },
        {
            "TrainingProgramEndDate": "2014-01-05 03:00",
            "TrainingProgramStartDate": "2014-01-01 00:00",
            "AnsweredRequests": [
                {
                    "PositionID": null,
                    "TrainingRequestID": 100000005,
                    "PositionName": null,
                    "ParticipantID": null
                }
            ],
            "ScheduledStatus": true,
            "MasterPlanID": 7315,
            "TrainingRequestID": 100000005,
            "Events": [
                {
                    "ActivityStartDate": "2014-01-03 00:00",
                    "ActivityID": 3361,
                    "ResourceAllocations": [
                        {
                            "AssignedResourceID": 69,
                            "RequirementStartTimeDelta": 0,
                            "CertificationRequirementIDs": null,
                            "AllocationStartTime": "2014-01-03 00:00",
                            "RequirementResourceTypeName": "Rooms",
                            "RequirementEndTimeDelta": 0,
                            "ResourceRequirementID": 3472,
                            "AllocationEndTime": "2014-01-03 03:00",
                            "RequirementResourceTypeID": 27
                        },
                        {
                            "AssignedResourceID": 104,
                            "RequirementStartTimeDelta": 0,
                            "CertificationRequirementIDs": null,
                            "AllocationStartTime": "2014-01-03 00:00",
                            "RequirementResourceTypeName": "A320 Ground Instructor",
                            "RequirementEndTimeDelta": 0,
                            "ResourceRequirementID": 3467,
                            "AllocationEndTime": "2014-01-03 03:00",
                            "RequirementResourceTypeID": 162
                        }
                    ]
                },
                {
                    "ActivityStartDate": "2014-01-05 00:00",
                    "ActivityID": 3362,
                    "ResourceAllocations": [
                        {
                            "AssignedResourceID": 69,
                            "RequirementStartTimeDelta": 0,
                            "CertificationRequirementIDs": null,
                            "AllocationStartTime": "2014-01-05 00:00",
                            "RequirementResourceTypeName": "Rooms",
                            "RequirementEndTimeDelta": 0,
                            "ResourceRequirementID": 3473,
                            "AllocationEndTime": "2014-01-05 03:00",
                            "RequirementResourceTypeID": 27
                        },
                        {
                            "AssignedResourceID": 104,
                            "RequirementStartTimeDelta": 0,
                            "CertificationRequirementIDs": null,
                            "AllocationStartTime": "2014-01-05 00:00",
                            "RequirementResourceTypeName": "A320 Ground Instructor",
                            "RequirementEndTimeDelta": 0,
                            "ResourceRequirementID": 3468,
                            "AllocationEndTime": "2014-01-05 03:00",
                            "RequirementResourceTypeID": 162
                        }
                    ]
                },
                {
                    "ActivityStartDate": "2014-01-05 00:00",
                    "ActivityID": 3363,
                    "ResourceAllocations": [
                        {
                            "AssignedResourceID": 69,
                            "RequirementStartTimeDelta": 0,
                            "CertificationRequirementIDs": null,
                            "AllocationStartTime": "2014-01-05 00:00",
                            "RequirementResourceTypeName": "Rooms",
                            "RequirementEndTimeDelta": 0,
                            "ResourceRequirementID": 3474,
                            "AllocationEndTime": "2014-01-05 03:00",
                            "RequirementResourceTypeID": 27
                        },
                        {
                            "AssignedResourceID": 104,
                            "RequirementStartTimeDelta": 0,
                            "CertificationRequirementIDs": null,
                            "AllocationStartTime": "2014-01-05 00:00",
                            "RequirementResourceTypeName": "A320 Ground Instructor",
                            "RequirementEndTimeDelta": 0,
                            "ResourceRequirementID": 3469,
                            "AllocationEndTime": "2014-01-05 03:00",
                            "RequirementResourceTypeID": 162
                        }
                    ]
                },
                {
                    "ActivityStartDate": "2014-01-05 00:00",
                    "ActivityID": 3364,
                    "ResourceAllocations": [
                        {
                            "AssignedResourceID": 69,
                            "RequirementStartTimeDelta": 0,
                            "CertificationRequirementIDs": null,
                            "AllocationStartTime": "2014-01-05 00:00",
                            "RequirementResourceTypeName": "Rooms",
                            "RequirementEndTimeDelta": 0,
                            "ResourceRequirementID": 3475,
                            "AllocationEndTime": "2014-01-05 03:00",
                            "RequirementResourceTypeID": 27
                        },
                        {
                            "AssignedResourceID": 104,
                            "RequirementStartTimeDelta": 0,
                            "CertificationRequirementIDs": null,
                            "AllocationStartTime": "2014-01-05 00:00",
                            "RequirementResourceTypeName": "A320 Ground Instructor",
                            "RequirementEndTimeDelta": 0,
                            "ResourceRequirementID": 3470,
                            "AllocationEndTime": "2014-01-05 03:00",
                            "RequirementResourceTypeID": 162
                        }
                    ]
                },
                {
                    "ActivityStartDate": "2014-01-01 00:00",
                    "ActivityID": 3365,
                    "ResourceAllocations": [
                        {
                            "AssignedResourceID": 69,
                            "RequirementStartTimeDelta": 0,
                            "CertificationRequirementIDs": null,
                            "AllocationStartTime": "2014-01-01 00:00",
                            "RequirementResourceTypeName": "Rooms",
                            "RequirementEndTimeDelta": 0,
                            "ResourceRequirementID": 3476,
                            "AllocationEndTime": "2014-01-01 04:00",
                            "RequirementResourceTypeID": 27
                        },
                        {
                            "AssignedResourceID": 104,
                            "RequirementStartTimeDelta": 0,
                            "CertificationRequirementIDs": null,
                            "AllocationStartTime": "2014-01-01 00:00",
                            "RequirementResourceTypeName": "A320 Ground Instructor",
                            "RequirementEndTimeDelta": 0,
                            "ResourceRequirementID": 3471,
                            "AllocationEndTime": "2014-01-01 04:00",
                            "RequirementResourceTypeID": 162
                        }
                    ]
                },
                {
                    "ActivityStartDate": "2014-01-03 00:00",
                    "ActivityID": 3366,
                    "ResourceAllocations": [
                        {
                            "AssignedResourceID": 89,
                            "RequirementStartTimeDelta": 0,
                            "CertificationRequirementIDs": null,
                            "AllocationStartTime": "2014-01-03 00:00",
                            "RequirementResourceTypeName": "A320 Flight Instructor",
                            "RequirementEndTimeDelta": 0,
                            "ResourceRequirementID": 3477,
                            "AllocationEndTime": "2014-01-03 02:00",
                            "RequirementResourceTypeID": 138
                        },
                        {
                            "AssignedResourceID": 69,
                            "RequirementStartTimeDelta": 0,
                            "CertificationRequirementIDs": null,
                            "AllocationStartTime": "2014-01-03 00:00",
                            "RequirementResourceTypeName": "Rooms",
                            "RequirementEndTimeDelta": 0,
                            "ResourceRequirementID": 3479,
                            "AllocationEndTime": "2014-01-03 02:00",
                            "RequirementResourceTypeID": 27
                        }
                    ]
                },
                {
                    "ActivityStartDate": "2014-01-04 00:00",
                    "ActivityID": 3367,
                    "ResourceAllocations": [
                        {
                            "AssignedResourceID": 89,
                            "RequirementStartTimeDelta": 0,
                            "CertificationRequirementIDs": null,
                            "AllocationStartTime": "2014-01-04 00:00",
                            "RequirementResourceTypeName": "A320 Flight Instructor",
                            "RequirementEndTimeDelta": 0,
                            "ResourceRequirementID": 3481,
                            "AllocationEndTime": "2014-01-04 08:00",
                            "RequirementResourceTypeID": 138
                        },
                        {
                            "AssignedResourceID": 66,
                            "RequirementStartTimeDelta": 0,
                            "CertificationRequirementIDs": null,
                            "AllocationStartTime": "2014-01-04 00:00",
                            "RequirementResourceTypeName": "A320-FFS",
                            "RequirementEndTimeDelta": 0,
                            "ResourceRequirementID": 3482,
                            "AllocationEndTime": "2014-01-04 08:00",
                            "RequirementResourceTypeID": 160
                        }
                    ]
                },
                {
                    "ActivityStartDate": "2014-01-05 00:00",
                    "ActivityID": 3368,
                    "ResourceAllocations": [
                        {
                            "AssignedResourceID": 69,
                            "RequirementStartTimeDelta": 0,
                            "CertificationRequirementIDs": null,
                            "AllocationStartTime": "2014-01-05 00:00",
                            "RequirementResourceTypeName": "Rooms",
                            "RequirementEndTimeDelta": 0,
                            "ResourceRequirementID": 3480,
                            "AllocationEndTime": "2014-01-05 02:00",
                            "RequirementResourceTypeID": 27
                        },
                        {
                            "AssignedResourceID": 89,
                            "RequirementStartTimeDelta": 0,
                            "CertificationRequirementIDs": null,
                            "AllocationStartTime": "2014-01-05 00:00",
                            "RequirementResourceTypeName": "A320 Flight Instructor",
                            "RequirementEndTimeDelta": 0,
                            "ResourceRequirementID": 3478,
                            "AllocationEndTime": "2014-01-05 02:00",
                            "RequirementResourceTypeID": 138
                        }
                    ]
                },
                {
                    "ActivityStartDate": "2014-01-04 00:00",
                    "ActivityID": 3369,
                    "ResourceAllocations": []
                },
                {
                    "ActivityStartDate": "2014-01-04 00:00",
                    "ActivityID": 3370,
                    "ResourceAllocations": []
                },
                {
                    "ActivityStartDate": "2014-01-05 00:00",
                    "ActivityID": 3371,
                    "ResourceAllocations": []
                }
            ]
        }
    ],
    "Pairings": []
}