{
    "TrainingPrograms": [
        {
            "TrainingProgramEndDate": "2014-02-27 08:00",
            "TrainingProgramStartDate": "2014-02-25 00:00",
            "AnsweredRequests": [
                {
                    "PositionID": null,
                    "TrainingRequestID": 3433,
                    "PositionName": null,
                    "ParticipantID": null
                }
            ],
            "ScheduledStatus": true,
            "MasterPlanID": 7315,
            "TrainingRequestID": 3433,
            "Events": [
                {
                    "ActivityStartDate": "2014-02-25 00:00",
                    "ActivityID": 3361,
                    "ResourceAllocations": [
                        {
                            "AssignedResourceID": 69,
                            "RequirementStartTimeDelta": 0,
                            "CertificationRequirementIDs": null,
                            "AllocationStartTime": "2014-02-25 00:00",
                            "RequirementResourceTypeName": "Rooms",
                            "RequirementEndTimeDelta": 0,
                            "ResourceRequirementID": 3472,
                            "AllocationEndTime": "2014-02-25 03:00",
                            "RequirementResourceTypeID": 27
                        },
                        {
                            "AssignedResourceID": 104,
                            "RequirementStartTimeDelta": 0,
                            "CertificationRequirementIDs": null,
                            "AllocationStartTime": "2014-02-25 00:00",
                            "RequirementResourceTypeName": "A320 Ground Instructor",
                            "RequirementEndTimeDelta": 0,
                            "ResourceRequirementID": 3467,
                            "AllocationEndTime": "2014-02-25 03:00",
                            "RequirementResourceTypeID": 162
                        }
                    ]
                },
                {
                    "ActivityStartDate": "2014-02-26 00:00",
                    "ActivityID": 3362,
                    "ResourceAllocations": [
                        {
                            "AssignedResourceID": 69,
                            "RequirementStartTimeDelta": 0,
                            "CertificationRequirementIDs": null,
                            "AllocationStartTime": "2014-02-26 00:00",
                            "RequirementResourceTypeName": "Rooms",
                            "RequirementEndTimeDelta": 0,
                            "ResourceRequirementID": 3473,
                            "AllocationEndTime": "2014-02-26 03:00",
                            "RequirementResourceTypeID": 27
                        },
                        {
                            "AssignedResourceID": 104,
                            "RequirementStartTimeDelta": 0,
                            "CertificationRequirementIDs": null,
                            "AllocationStartTime": "2014-02-26 00:00",
                            "RequirementResourceTypeName": "A320 Ground Instructor",
                            "RequirementEndTimeDelta": 0,
                            "ResourceRequirementID": 3468,
                            "AllocationEndTime": "2014-02-26 03:00",
                            "RequirementResourceTypeID": 162
                        }
                    ]
                },
                {
                    "ActivityStartDate": "2014-02-25 00:00",
                    "ActivityID": 3363,
                    "ResourceAllocations": [
                        {
                            "AssignedResourceID": 69,
                            "RequirementStartTimeDelta": 0,
                            "CertificationRequirementIDs": null,
                            "AllocationStartTime": "2014-02-25 00:00",
                            "RequirementResourceTypeName": "Rooms",
                            "RequirementEndTimeDelta": 0,
                            "ResourceRequirementID": 3474,
                            "AllocationEndTime": "2014-02-25 03:00",
                            "RequirementResourceTypeID": 27
                        },
                        {
                            "AssignedResourceID": 104,
                            "RequirementStartTimeDelta": 0,
                            "CertificationRequirementIDs": null,
                            "AllocationStartTime": "2014-02-25 00:00",
                            "RequirementResourceTypeName": "A320 Ground Instructor",
                            "RequirementEndTimeDelta": 0,
                            "ResourceRequirementID": 3469,
                            "AllocationEndTime": "2014-02-25 03:00",
                            "RequirementResourceTypeID": 162
                        }
                    ]
                },
                {
                    "ActivityStartDate": "2014-02-26 00:00",
                    "ActivityID": 3364,
                    "ResourceAllocations": [
                        {
                            "AssignedResourceID": 69,
                            "RequirementStartTimeDelta": 0,
                            "CertificationRequirementIDs": null,
                            "AllocationStartTime": "2014-02-26 00:00",
                            "RequirementResourceTypeName": "Rooms",
                            "RequirementEndTimeDelta": 0,
                            "ResourceRequirementID": 3475,
                            "AllocationEndTime": "2014-02-26 03:00",
                            "RequirementResourceTypeID": 27
                        },
                        {
                            "AssignedResourceID": 104,
                            "RequirementStartTimeDelta": 0,
                            "CertificationRequirementIDs": null,
                            "AllocationStartTime": "2014-02-26 00:00",
                            "RequirementResourceTypeName": "A320 Ground Instructor",
                            "RequirementEndTimeDelta": 0,
                            "ResourceRequirementID": 3470,
                            "AllocationEndTime": "2014-02-26 03:00",
                            "RequirementResourceTypeID": 162
                        }
                    ]
                },
                {
                    "ActivityStartDate": "2014-02-26 00:00",
                    "ActivityID": 3365,
                    "ResourceAllocations": [
                        {
                            "AssignedResourceID": 69,
                            "RequirementStartTimeDelta": 0,
                            "CertificationRequirementIDs": null,
                            "AllocationStartTime": "2014-02-26 00:00",
                            "RequirementResourceTypeName": "Rooms",
                            "RequirementEndTimeDelta": 0,
                            "ResourceRequirementID": 3476,
                            "AllocationEndTime": "2014-02-26 04:00",
                            "RequirementResourceTypeID": 27
                        },
                        {
                            "AssignedResourceID": 104,
                            "RequirementStartTimeDelta": 0,
                            "CertificationRequirementIDs": null,
                            "AllocationStartTime": "2014-02-26 00:00",
                            "RequirementResourceTypeName": "A320 Ground Instructor",
                            "RequirementEndTimeDelta": 0,
                            "ResourceRequirementID": 3471,
                            "AllocationEndTime": "2014-02-26 04:00",
                            "RequirementResourceTypeID": 162
                        }
                    ]
                },
                {
                    "ActivityStartDate": "2014-02-27 00:00",
                    "ActivityID": 3366,
                    "ResourceAllocations": [
                        {
                            "AssignedResourceID": 89,
                            "RequirementStartTimeDelta": 0,
                            "CertificationRequirementIDs": null,
                            "AllocationStartTime": "2014-02-27 00:00",
                            "RequirementResourceTypeName": "A320 Flight Instructor",
                            "RequirementEndTimeDelta": 0,
                            "ResourceRequirementID": 3477,
                            "AllocationEndTime": "2014-02-27 02:00",
                            "RequirementResourceTypeID": 138
                        },
                        {
                            "AssignedResourceID": 69,
                            "RequirementStartTimeDelta": 0,
                            "CertificationRequirementIDs": null,
                            "AllocationStartTime": "2014-02-27 00:00",
                            "RequirementResourceTypeName": "Rooms",
                            "RequirementEndTimeDelta": 0,
                            "ResourceRequirementID": 3479,
                            "AllocationEndTime": "2014-02-27 02:00",
                            "RequirementResourceTypeID": 27
                        }
                    ]
                },
                {
                    "ActivityStartDate": "2014-02-27 00:00",
                    "ActivityID": 3367,
                    "ResourceAllocations": [
                        {
                            "AssignedResourceID": 89,
                            "RequirementStartTimeDelta": 0,
                            "CertificationRequirementIDs": null,
                            "AllocationStartTime": "2014-02-27 00:00",
                            "RequirementResourceTypeName": "A320 Flight Instructor",
                            "RequirementEndTimeDelta": 0,
                            "ResourceRequirementID": 3481,
                            "AllocationEndTime": "2014-02-27 08:00",
                            "RequirementResourceTypeID": 138
                        },
                        {
                            "AssignedResourceID": 66,
                            "RequirementStartTimeDelta": 0,
                            "CertificationRequirementIDs": null,
                            "AllocationStartTime": "2014-02-27 00:00",
                            "RequirementResourceTypeName": "A320-FFS",
                            "RequirementEndTimeDelta": 0,
                            "ResourceRequirementID": 3482,
                            "AllocationEndTime": "2014-02-27 08:00",
                            "RequirementResourceTypeID": 160
                        }
                    ]
                },
                {
                    "ActivityStartDate": "2014-02-25 00:00",
                    "ActivityID": 3368,
                    "ResourceAllocations": [
                        {
                            "AssignedResourceID": 69,
                            "RequirementStartTimeDelta": 0,
                            "CertificationRequirementIDs": null,
                            "AllocationStartTime": "2014-02-25 00:00",
                            "RequirementResourceTypeName": "Rooms",
                            "RequirementEndTimeDelta": 0,
                            "ResourceRequirementID": 3480,
                            "AllocationEndTime": "2014-02-25 02:00",
                            "RequirementResourceTypeID": 27
                        },
                        {
                            "AssignedResourceID": 89,
                            "RequirementStartTimeDelta": 0,
                            "CertificationRequirementIDs": null,
                            "AllocationStartTime": "2014-02-25 00:00",
                            "RequirementResourceTypeName": "A320 Flight Instructor",
                            "RequirementEndTimeDelta": 0,
                            "ResourceRequirementID": 3478,
                            "AllocationEndTime": "2014-02-25 02:00",
                            "RequirementResourceTypeID": 138
                        }
                    ]
                },
                {
                    "ActivityStartDate": "2014-02-26 00:00",
                    "ActivityID": 3369,
                    "ResourceAllocations": []
                },
                {
                    "ActivityStartDate": "2014-02-25 00:00",
                    "ActivityID": 3370,
                    "ResourceAllocations": []
                },
                {
                    "ActivityStartDate": "2014-02-27 00:00",
                    "ActivityID": 3371,
                    "ResourceAllocations": []
                }
            ]
        },
        {
            "TrainingProgramEndDate": "2014-02-27 04:00",
            "TrainingProgramStartDate": "2014-02-25 00:00",
            "AnsweredRequests": [
                {
                    "PositionID": null,
                    "TrainingRequestID": 3434,
                    "PositionName": null,
                    "ParticipantID": null
                }
            ],
            "ScheduledStatus": true,
            "MasterPlanID": 7414,
            "TrainingRequestID": 3434,
            "Events": [
                {
                    "ActivityStartDate": "2014-02-26 00:00",
                    "ActivityID": 3456,
                    "ResourceAllocations": [
                        {
                            "AssignedResourceID": 89,
                            "RequirementStartTimeDelta": 0,
                            "CertificationRequirementIDs": null,
                            "AllocationStartTime": "2014-02-26 00:00",
                            "RequirementResourceTypeName": "A320 Flight Instructor",
                            "RequirementEndTimeDelta": 0,
                            "ResourceRequirementID": 3517,
                            "AllocationEndTime": "2014-02-26 02:00",
                            "RequirementResourceTypeID": 138
                        },
                        {
                            "AssignedResourceID": 69,
                            "RequirementStartTimeDelta": 0,
                            "CertificationRequirementIDs": null,
                            "AllocationStartTime": "2014-02-26 00:00",
                            "RequirementResourceTypeName": "Rooms",
                            "RequirementEndTimeDelta": 0,
                            "ResourceRequirementID": 3519,
                            "AllocationEndTime": "2014-02-26 02:00",
                            "RequirementResourceTypeID": 27
                        }
                    ]
                },
                {
                    "ActivityStartDate": "2014-02-26 00:00",
                    "ActivityID": 3457,
                    "ResourceAllocations": [
                        {
                            "AssignedResourceID": 89,
                            "RequirementStartTimeDelta": 0,
                            "CertificationRequirementIDs": null,
                            "AllocationStartTime": "2014-02-26 00:00",
                            "RequirementResourceTypeName": "A320 Flight Instructor",
                            "RequirementEndTimeDelta": 0,
                            "ResourceRequirementID": 3521,
                            "AllocationEndTime": "2014-02-26 02:00",
                            "RequirementResourceTypeID": 138
                        },
                        {
                            "AssignedResourceID": 69,
                            "RequirementStartTimeDelta": 0,
                            "CertificationRequirementIDs": null,
                            "AllocationStartTime": "2014-02-26 00:00",
                            "RequirementResourceTypeName": "Rooms",
                            "RequirementEndTimeDelta": 0,
                            "ResourceRequirementID": 3524,
                            "AllocationEndTime": "2014-02-26 02:00",
                            "RequirementResourceTypeID": 27
                        }
                    ]
                },
                {
                    "ActivityStartDate": "2014-02-25 00:00",
                    "ActivityID": 3458,
                    "ResourceAllocations": [
                        {
                            "AssignedResourceID": 89,
                            "RequirementStartTimeDelta": 0,
                            "CertificationRequirementIDs": null,
                            "AllocationStartTime": "2014-02-25 00:00",
                            "RequirementResourceTypeName": "A320 Flight Instructor",
                            "RequirementEndTimeDelta": 0,
                            "ResourceRequirementID": 3522,
                            "AllocationEndTime": "2014-02-25 04:00",
                            "RequirementResourceTypeID": 138
                        },
                        {
                            "AssignedResourceID": 66,
                            "RequirementStartTimeDelta": 0,
                            "CertificationRequirementIDs": null,
                            "AllocationStartTime": "2014-02-25 00:00",
                            "RequirementResourceTypeName": "A320-FFS",
                            "RequirementEndTimeDelta": 0,
                            "ResourceRequirementID": 3526,
                            "AllocationEndTime": "2014-02-25 04:00",
                            "RequirementResourceTypeID": 160
                        }
                    ]
                },
                {
                    "ActivityStartDate": "2014-02-26 00:00",
                    "ActivityID": 3459,
                    "ResourceAllocations": [
                        {
                            "AssignedResourceID": 89,
                            "RequirementStartTimeDelta": 0,
                            "CertificationRequirementIDs": null,
                            "AllocationStartTime": "2014-02-26 00:00",
                            "RequirementResourceTypeName": "A320 Flight Instructor",
                            "RequirementEndTimeDelta": 0,
                            "ResourceRequirementID": 3523,
                            "AllocationEndTime": "2014-02-26 02:00",
                            "RequirementResourceTypeID": 138
                        },
                        {
                            "AssignedResourceID": 69,
                            "RequirementStartTimeDelta": 0,
                            "CertificationRequirementIDs": null,
                            "AllocationStartTime": "2014-02-26 00:00",
                            "RequirementResourceTypeName": "Rooms",
                            "RequirementEndTimeDelta": 0,
                            "ResourceRequirementID": 3525,
                            "AllocationEndTime": "2014-02-26 02:00",
                            "RequirementResourceTypeID": 27
                        }
                    ]
                },
                {
                    "ActivityStartDate": "2014-02-26 00:00",
                    "ActivityID": 3449,
                    "ResourceAllocations": [
                        {
                            "AssignedResourceID": 104,
                            "RequirementStartTimeDelta": 0,
                            "CertificationRequirementIDs": null,
                            "AllocationStartTime": "2014-02-26 00:00",
                            "RequirementResourceTypeName": "A320 Ground Instructor",
                            "RequirementEndTimeDelta": 0,
                            "ResourceRequirementID": 3505,
                            "AllocationEndTime": "2014-02-26 03:00",
                            "RequirementResourceTypeID": 162
                        },
                        {
                            "AssignedResourceID": 69,
                            "RequirementStartTimeDelta": 0,
                            "CertificationRequirementIDs": null,
                            "AllocationStartTime": "2014-02-26 00:00",
                            "RequirementResourceTypeName": "Rooms",
                            "RequirementEndTimeDelta": 0,
                            "ResourceRequirementID": 3510,
                            "AllocationEndTime": "2014-02-26 03:00",
                            "RequirementResourceTypeID": 27
                        }
                    ]
                },
                {
                    "ActivityStartDate": "2014-02-26 00:00",
                    "ActivityID": 3450,
                    "ResourceAllocations": [
                        {
                            "AssignedResourceID": 104,
                            "RequirementStartTimeDelta": 0,
                            "CertificationRequirementIDs": null,
                            "AllocationStartTime": "2014-02-26 00:00",
                            "RequirementResourceTypeName": "A320 Ground Instructor",
                            "RequirementEndTimeDelta": 0,
                            "ResourceRequirementID": 3506,
                            "AllocationEndTime": "2014-02-26 03:00",
                            "RequirementResourceTypeID": 162
                        },
                        {
                            "AssignedResourceID": 69,
                            "RequirementStartTimeDelta": 0,
                            "CertificationRequirementIDs": null,
                            "AllocationStartTime": "2014-02-26 00:00",
                            "RequirementResourceTypeName": "Rooms",
                            "RequirementEndTimeDelta": 0,
                            "ResourceRequirementID": 3511,
                            "AllocationEndTime": "2014-02-26 03:00",
                            "RequirementResourceTypeID": 27
                        }
                    ]
                },
                {
                    "ActivityStartDate": "2014-02-27 00:00",
                    "ActivityID": 3451,
                    "ResourceAllocations": [
                        {
                            "AssignedResourceID": 69,
                            "RequirementStartTimeDelta": 0,
                            "CertificationRequirementIDs": null,
                            "AllocationStartTime": "2014-02-27 00:00",
                            "RequirementResourceTypeName": "Rooms",
                            "RequirementEndTimeDelta": 0,
                            "ResourceRequirementID": 3512,
                            "AllocationEndTime": "2014-02-27 03:00",
                            "RequirementResourceTypeID": 27
                        },
                        {
                            "AssignedResourceID": 104,
                            "RequirementStartTimeDelta": 0,
                            "CertificationRequirementIDs": null,
                            "AllocationStartTime": "2014-02-27 00:00",
                            "RequirementResourceTypeName": "A320 Ground Instructor",
                            "RequirementEndTimeDelta": 0,
                            "ResourceRequirementID": 3507,
                            "AllocationEndTime": "2014-02-27 03:00",
                            "RequirementResourceTypeID": 162
                        }
                    ]
                },
                {
                    "ActivityStartDate": "2014-02-27 00:00",
                    "ActivityID": 3452,
                    "ResourceAllocations": [
                        {
                            "AssignedResourceID": 69,
                            "RequirementStartTimeDelta": 0,
                            "CertificationRequirementIDs": null,
                            "AllocationStartTime": "2014-02-27 00:00",
                            "RequirementResourceTypeName": "Rooms",
                            "RequirementEndTimeDelta": 0,
                            "ResourceRequirementID": 3513,
                            "AllocationEndTime": "2014-02-27 03:00",
                            "RequirementResourceTypeID": 27
                        },
                        {
                            "AssignedResourceID": 104,
                            "RequirementStartTimeDelta": 0,
                            "CertificationRequirementIDs": null,
                            "AllocationStartTime": "2014-02-27 00:00",
                            "RequirementResourceTypeName": "A320 Ground Instructor",
                            "RequirementEndTimeDelta": 0,
                            "ResourceRequirementID": 3508,
                            "AllocationEndTime": "2014-02-27 03:00",
                            "RequirementResourceTypeID": 162
                        }
                    ]
                },
                {
                    "ActivityStartDate": "2014-02-27 00:00",
                    "ActivityID": 3453,
                    "ResourceAllocations": [
                        {
                            "AssignedResourceID": 69,
                            "RequirementStartTimeDelta": 0,
                            "CertificationRequirementIDs": null,
                            "AllocationStartTime": "2014-02-27 00:00",
                            "RequirementResourceTypeName": "Rooms",
                            "RequirementEndTimeDelta": 0,
                            "ResourceRequirementID": 3514,
                            "AllocationEndTime": "2014-02-27 04:00",
                            "RequirementResourceTypeID": 27
                        },
                        {
                            "AssignedResourceID": 104,
                            "RequirementStartTimeDelta": 0,
                            "CertificationRequirementIDs": null,
                            "AllocationStartTime": "2014-02-27 00:00",
                            "RequirementResourceTypeName": "A320 Ground Instructor",
                            "RequirementEndTimeDelta": 0,
                            "ResourceRequirementID": 3509,
                            "AllocationEndTime": "2014-02-27 04:00",
                            "RequirementResourceTypeID": 162
                        }
                    ]
                },
                {
                    "ActivityStartDate": "2014-02-26 00:00",
                    "ActivityID": 3454,
                    "ResourceAllocations": [
                        {
                            "AssignedResourceID": 89,
                            "RequirementStartTimeDelta": 0,
                            "CertificationRequirementIDs": null,
                            "AllocationStartTime": "2014-02-26 00:00",
                            "RequirementResourceTypeName": "A320 Flight Instructor",
                            "RequirementEndTimeDelta": 0,
                            "ResourceRequirementID": 3515,
                            "AllocationEndTime": "2014-02-26 02:00",
                            "RequirementResourceTypeID": 138
                        },
                        {
                            "AssignedResourceID": 69,
                            "RequirementStartTimeDelta": 0,
                            "CertificationRequirementIDs": null,
                            "AllocationStartTime": "2014-02-26 00:00",
                            "RequirementResourceTypeName": "Rooms",
                            "RequirementEndTimeDelta": 0,
                            "ResourceRequirementID": 3518,
                            "AllocationEndTime": "2014-02-26 02:00",
                            "RequirementResourceTypeID": 27
                        }
                    ]
                },
                {
                    "ActivityStartDate": "2014-02-25 00:00",
                    "ActivityID": 3455,
                    "ResourceAllocations": [
                        {
                            "AssignedResourceID": 66,
                            "RequirementStartTimeDelta": 0,
                            "CertificationRequirementIDs": null,
                            "AllocationStartTime": "2014-02-25 00:00",
                            "RequirementResourceTypeName": "A320-FFS",
                            "RequirementEndTimeDelta": 0,
                            "ResourceRequirementID": 3520,
                            "AllocationEndTime": "2014-02-25 08:00",
                            "RequirementResourceTypeID": 160
                        },
                        {
                            "AssignedResourceID": 89,
                            "RequirementStartTimeDelta": 0,
                            "CertificationRequirementIDs": null,
                            "AllocationStartTime": "2014-02-25 00:00",
                            "RequirementResourceTypeName": "A320 Flight Instructor",
                            "RequirementEndTimeDelta": 0,
                            "ResourceRequirementID": 3516,
                            "AllocationEndTime": "2014-02-25 08:00",
                            "RequirementResourceTypeID": 138
                        }
                    ]
                }
            ]
        },
        {
            "TrainingProgramEndDate": "2014-02-27 08:00",
            "TrainingProgramStartDate": "2014-02-25 00:00",
            "AnsweredRequests": [
                {
                    "PositionID": null,
                    "TrainingRequestID": 3435,
                    "PositionName": null,
                    "ParticipantID": null
                }
            ],
            "ScheduledStatus": true,
            "MasterPlanID": 7378,
            "TrainingRequestID": 3435,
            "Events": [
                {
                    "ActivityStartDate": "2014-02-26 00:00",
                    "ActivityID": 3405,
                    "ResourceAllocations": [
                        {
                            "AssignedResourceID": 69,
                            "RequirementStartTimeDelta": 0,
                            "CertificationRequirementIDs": null,
                            "AllocationStartTime": "2014-02-26 00:00",
                            "RequirementResourceTypeName": "Rooms",
                            "RequirementEndTimeDelta": 0,
                            "ResourceRequirementID": 3488,
                            "AllocationEndTime": "2014-02-26 03:00",
                            "RequirementResourceTypeID": 27
                        },
                        {
                            "AssignedResourceID": 104,
                            "RequirementStartTimeDelta": 0,
                            "CertificationRequirementIDs": null,
                            "AllocationStartTime": "2014-02-26 00:00",
                            "RequirementResourceTypeName": "A320 Ground Instructor",
                            "RequirementEndTimeDelta": 0,
                            "ResourceRequirementID": 3483,
                            "AllocationEndTime": "2014-02-26 03:00",
                            "RequirementResourceTypeID": 162
                        }
                    ]
                },
                {
                    "ActivityStartDate": "2014-02-25 00:00",
                    "ActivityID": 3406,
                    "ResourceAllocations": [
                        {
                            "AssignedResourceID": 69,
                            "RequirementStartTimeDelta": 0,
                            "CertificationRequirementIDs": null,
                            "AllocationStartTime": "2014-02-25 00:00",
                            "RequirementResourceTypeName": "Rooms",
                            "RequirementEndTimeDelta": 0,
                            "ResourceRequirementID": 3489,
                            "AllocationEndTime": "2014-02-25 03:00",
                            "RequirementResourceTypeID": 27
                        },
                        {
                            "AssignedResourceID": 104,
                            "RequirementStartTimeDelta": 0,
                            "CertificationRequirementIDs": null,
                            "AllocationStartTime": "2014-02-25 00:00",
                            "RequirementResourceTypeName": "A320 Ground Instructor",
                            "RequirementEndTimeDelta": 0,
                            "ResourceRequirementID": 3484,
                            "AllocationEndTime": "2014-02-25 03:00",
                            "RequirementResourceTypeID": 162
                        }
                    ]
                },
                {
                    "ActivityStartDate": "2014-02-26 00:00",
                    "ActivityID": 3407,
                    "ResourceAllocations": [
                        {
                            "AssignedResourceID": 69,
                            "RequirementStartTimeDelta": 0,
                            "CertificationRequirementIDs": null,
                            "AllocationStartTime": "2014-02-26 00:00",
                            "RequirementResourceTypeName": "Rooms",
                            "RequirementEndTimeDelta": 0,
                            "ResourceRequirementID": 3490,
                            "AllocationEndTime": "2014-02-26 03:00",
                            "RequirementResourceTypeID": 27
                        },
                        {
                            "AssignedResourceID": 104,
                            "RequirementStartTimeDelta": 0,
                            "CertificationRequirementIDs": null,
                            "AllocationStartTime": "2014-02-26 00:00",
                            "RequirementResourceTypeName": "A320 Ground Instructor",
                            "RequirementEndTimeDelta": 0,
                            "ResourceRequirementID": 3485,
                            "AllocationEndTime": "2014-02-26 03:00",
                            "RequirementResourceTypeID": 162
                        }
                    ]
                },
                {
                    "ActivityStartDate": "2014-02-27 00:00",
                    "ActivityID": 3408,
                    "ResourceAllocations": [
                        {
                            "AssignedResourceID": 69,
                            "RequirementStartTimeDelta": 0,
                            "CertificationRequirementIDs": null,
                            "AllocationStartTime": "2014-02-27 00:00",
                            "RequirementResourceTypeName": "Rooms",
                            "RequirementEndTimeDelta": 0,
                            "ResourceRequirementID": 3491,
                            "AllocationEndTime": "2014-02-27 03:00",
                            "RequirementResourceTypeID": 27
                        },
                        {
                            "AssignedResourceID": 104,
                            "RequirementStartTimeDelta": 0,
                            "CertificationRequirementIDs": null,
                            "AllocationStartTime": "2014-02-27 00:00",
                            "RequirementResourceTypeName": "A320 Ground Instructor",
                            "RequirementEndTimeDelta": 0,
                            "ResourceRequirementID": 3486,
                            "AllocationEndTime": "2014-02-27 03:00",
                            "RequirementResourceTypeID": 162
                        }
                    ]
                },
                {
                    "ActivityStartDate": "2014-02-25 00:00",
                    "ActivityID": 3409,
                    "ResourceAllocations": [
                        {
                            "AssignedResourceID": 69,
                            "RequirementStartTimeDelta": 0,
                            "CertificationRequirementIDs": null,
                            "AllocationStartTime": "2014-02-25 00:00",
                            "RequirementResourceTypeName": "Rooms",
                            "RequirementEndTimeDelta": 0,
                            "ResourceRequirementID": 3492,
                            "AllocationEndTime": "2014-02-25 04:00",
                            "RequirementResourceTypeID": 27
                        },
                        {
                            "AssignedResourceID": 104,
                            "RequirementStartTimeDelta": 0,
                            "CertificationRequirementIDs": null,
                            "AllocationStartTime": "2014-02-25 00:00",
                            "RequirementResourceTypeName": "A320 Ground Instructor",
                            "RequirementEndTimeDelta": 0,
                            "ResourceRequirementID": 3487,
                            "AllocationEndTime": "2014-02-25 04:00",
                            "RequirementResourceTypeID": 162
                        }
                    ]
                },
                {
                    "ActivityStartDate": "2014-02-27 00:00",
                    "ActivityID": 3410,
                    "ResourceAllocations": [
                        {
                            "AssignedResourceID": 89,
                            "RequirementStartTimeDelta": 0,
                            "CertificationRequirementIDs": null,
                            "AllocationStartTime": "2014-02-27 00:00",
                            "RequirementResourceTypeName": "A320 Flight Instructor",
                            "RequirementEndTimeDelta": 0,
                            "ResourceRequirementID": 3493,
                            "AllocationEndTime": "2014-02-27 02:00",
                            "RequirementResourceTypeID": 138
                        },
                        {
                            "AssignedResourceID": 69,
                            "RequirementStartTimeDelta": 0,
                            "CertificationRequirementIDs": null,
                            "AllocationStartTime": "2014-02-27 00:00",
                            "RequirementResourceTypeName": "Rooms",
                            "RequirementEndTimeDelta": 0,
                            "ResourceRequirementID": 3495,
                            "AllocationEndTime": "2014-02-27 02:00",
                            "RequirementResourceTypeID": 27
                        }
                    ]
                },
                {
                    "ActivityStartDate": "2014-02-27 00:00",
                    "ActivityID": 3411,
                    "ResourceAllocations": [
                        {
                            "AssignedResourceID": 89,
                            "RequirementStartTimeDelta": 0,
                            "CertificationRequirementIDs": null,
                            "AllocationStartTime": "2014-02-27 00:00",
                            "RequirementResourceTypeName": "A320 Flight Instructor",
                            "RequirementEndTimeDelta": 0,
                            "ResourceRequirementID": 3497,
                            "AllocationEndTime": "2014-02-27 08:00",
                            "RequirementResourceTypeID": 138
                        },
                        {
                            "AssignedResourceID": 66,
                            "RequirementStartTimeDelta": 0,
                            "CertificationRequirementIDs": null,
                            "AllocationStartTime": "2014-02-27 00:00",
                            "RequirementResourceTypeName": "A320-FFS",
                            "RequirementEndTimeDelta": 0,
                            "ResourceRequirementID": 3498,
                            "AllocationEndTime": "2014-02-27 08:00",
                            "RequirementResourceTypeID": 160
                        }
                    ]
                },
                {
                    "ActivityStartDate": "2014-02-25 00:00",
                    "ActivityID": 3412,
                    "ResourceAllocations": [
                        {
                            "AssignedResourceID": 69,
                            "RequirementStartTimeDelta": 0,
                            "CertificationRequirementIDs": null,
                            "AllocationStartTime": "2014-02-25 00:00",
                            "RequirementResourceTypeName": "Rooms",
                            "RequirementEndTimeDelta": 0,
                            "ResourceRequirementID": 3496,
                            "AllocationEndTime": "2014-02-25 02:00",
                            "RequirementResourceTypeID": 27
                        },
                        {
                            "AssignedResourceID": 89,
                            "RequirementStartTimeDelta": 0,
                            "CertificationRequirementIDs": null,
                            "AllocationStartTime": "2014-02-25 00:00",
                            "RequirementResourceTypeName": "A320 Flight Instructor",
                            "RequirementEndTimeDelta": 0,
                            "ResourceRequirementID": 3494,
                            "AllocationEndTime": "2014-02-25 02:00",
                            "RequirementResourceTypeID": 138
                        }
                    ]
                },
                {
                    "ActivityStartDate": "2014-02-26 00:00",
                    "ActivityID": 3413,
                    "ResourceAllocations": [
                        {
                            "AssignedResourceID": 89,
                            "RequirementStartTimeDelta": 0,
                            "CertificationRequirementIDs": null,
                            "AllocationStartTime": "2014-02-26 00:00",
                            "RequirementResourceTypeName": "A320 Flight Instructor",
                            "RequirementEndTimeDelta": 0,
                            "ResourceRequirementID": 3499,
                            "AllocationEndTime": "2014-02-26 02:00",
                            "RequirementResourceTypeID": 138
                        },
                        {
                            "AssignedResourceID": 69,
                            "RequirementStartTimeDelta": 0,
                            "CertificationRequirementIDs": null,
                            "AllocationStartTime": "2014-02-26 00:00",
                            "RequirementResourceTypeName": "Rooms",
                            "RequirementEndTimeDelta": 0,
                            "ResourceRequirementID": 3502,
                            "AllocationEndTime": "2014-02-26 02:00",
                            "RequirementResourceTypeID": 27
                        }
                    ]
                },
                {
                    "ActivityStartDate": "2014-02-25 00:00",
                    "ActivityID": 3414,
                    "ResourceAllocations": [
                        {
                            "AssignedResourceID": 66,
                            "RequirementStartTimeDelta": 0,
                            "CertificationRequirementIDs": null,
                            "AllocationStartTime": "2014-02-25 00:00",
                            "RequirementResourceTypeName": "A320-FFS",
                            "RequirementEndTimeDelta": 0,
                            "ResourceRequirementID": 3504,
                            "AllocationEndTime": "2014-02-25 04:00",
                            "RequirementResourceTypeID": 160
                        },
                        {
                            "AssignedResourceID": 89,
                            "RequirementStartTimeDelta": 0,
                            "CertificationRequirementIDs": null,
                            "AllocationStartTime": "2014-02-25 00:00",
                            "RequirementResourceTypeName": "A320 Flight Instructor",
                            "RequirementEndTimeDelta": 0,
                            "ResourceRequirementID": 3500,
                            "AllocationEndTime": "2014-02-25 04:00",
                            "RequirementResourceTypeID": 138
                        }
                    ]
                },
                {
                    "ActivityStartDate": "2014-02-26 00:00",
                    "ActivityID": 3415,
                    "ResourceAllocations": [
                        {
                            "AssignedResourceID": 89,
                            "RequirementStartTimeDelta": 0,
                            "CertificationRequirementIDs": null,
                            "AllocationStartTime": "2014-02-26 00:00",
                            "RequirementResourceTypeName": "A320 Flight Instructor",
                            "RequirementEndTimeDelta": 0,
                            "ResourceRequirementID": 3501,
                            "AllocationEndTime": "2014-02-26 02:00",
                            "RequirementResourceTypeID": 138
                        },
                        {
                            "AssignedResourceID": 69,
                            "RequirementStartTimeDelta": 0,
                            "CertificationRequirementIDs": null,
                            "AllocationStartTime": "2014-02-26 00:00",
                            "RequirementResourceTypeName": "Rooms",
                            "RequirementEndTimeDelta": 0,
                            "ResourceRequirementID": 3503,
                            "AllocationEndTime": "2014-02-26 02:00",
                            "RequirementResourceTypeID": 27
                        }
                    ]
                }
            ]
        },
        {
            "TrainingProgramEndDate": "2014-02-27 03:00",
            "TrainingProgramStartDate": "2014-02-25 00:00",
            "AnsweredRequests": [
                {
                    "PositionID": null,
                    "TrainingRequestID": 3436,
                    "PositionName": null,
                    "ParticipantID": null
                }
            ],
            "ScheduledStatus": true,
            "MasterPlanID": 7477,
            "TrainingRequestID": 3436,
            "Events": [
                {
                    "ActivityStartDate": "2014-02-27 00:00",
                    "ActivityID": 3460,
                    "ResourceAllocations": [
                        {
                            "AssignedResourceID": 104,
                            "RequirementStartTimeDelta": 0,
                            "CertificationRequirementIDs": null,
                            "AllocationStartTime": "2014-02-27 00:00",
                            "RequirementResourceTypeName": "A320 Ground Instructor",
                            "RequirementEndTimeDelta": 0,
                            "ResourceRequirementID": 3528,
                            "AllocationEndTime": "2014-02-27 03:00",
                            "RequirementResourceTypeID": 162
                        },
                        {
                            "AssignedResourceID": 69,
                            "RequirementStartTimeDelta": 0,
                            "CertificationRequirementIDs": null,
                            "AllocationStartTime": "2014-02-27 00:00",
                            "RequirementResourceTypeName": "Rooms",
                            "RequirementEndTimeDelta": 0,
                            "ResourceRequirementID": 3527,
                            "AllocationEndTime": "2014-02-27 03:00",
                            "RequirementResourceTypeID": 27
                        }
                    ]
                },
                {
                    "ActivityStartDate": "2014-02-26 00:00",
                    "ActivityID": 3461,
                    "ResourceAllocations": [
                        {
                            "AssignedResourceID": 69,
                            "RequirementStartTimeDelta": 0,
                            "CertificationRequirementIDs": null,
                            "AllocationStartTime": "2014-02-26 00:00",
                            "RequirementResourceTypeName": "Rooms",
                            "RequirementEndTimeDelta": 0,
                            "ResourceRequirementID": 3529,
                            "AllocationEndTime": "2014-02-26 03:00",
                            "RequirementResourceTypeID": 27
                        },
                        {
                            "AssignedResourceID": 104,
                            "RequirementStartTimeDelta": 0,
                            "CertificationRequirementIDs": null,
                            "AllocationStartTime": "2014-02-26 00:00",
                            "RequirementResourceTypeName": "A320 Ground Instructor",
                            "RequirementEndTimeDelta": 0,
                            "ResourceRequirementID": 3530,
                            "AllocationEndTime": "2014-02-26 03:00",
                            "RequirementResourceTypeID": 162
                        }
                    ]
                },
                {
                    "ActivityStartDate": "2014-02-27 00:00",
                    "ActivityID": 3462,
                    "ResourceAllocations": [
                        {
                            "AssignedResourceID": 69,
                            "RequirementStartTimeDelta": 0,
                            "CertificationRequirementIDs": null,
                            "AllocationStartTime": "2014-02-27 00:00",
                            "RequirementResourceTypeName": "Rooms",
                            "RequirementEndTimeDelta": 0,
                            "ResourceRequirementID": 3531,
                            "AllocationEndTime": "2014-02-27 03:00",
                            "RequirementResourceTypeID": 27
                        },
                        {
                            "AssignedResourceID": 104,
                            "RequirementStartTimeDelta": 0,
                            "CertificationRequirementIDs": null,
                            "AllocationStartTime": "2014-02-27 00:00",
                            "RequirementResourceTypeName": "A320 Ground Instructor",
                            "RequirementEndTimeDelta": 0,
                            "ResourceRequirementID": 3532,
                            "AllocationEndTime": "2014-02-27 03:00",
                            "RequirementResourceTypeID": 162
                        }
                    ]
                },
                {
                    "ActivityStartDate": "2014-02-26 00:00",
                    "ActivityID": 3463,
                    "ResourceAllocations": [
                        {
                            "AssignedResourceID": 69,
                            "RequirementStartTimeDelta": 0,
                            "CertificationRequirementIDs": null,
                            "AllocationStartTime": "2014-02-26 00:00",
                            "RequirementResourceTypeName": "Rooms",
                            "RequirementEndTimeDelta": 0,
                            "ResourceRequirementID": 3533,
                            "AllocationEndTime": "2014-02-26 03:00",
                            "RequirementResourceTypeID": 27
                        },
                        {
                            "AssignedResourceID": 104,
                            "RequirementStartTimeDelta": 0,
                            "CertificationRequirementIDs": null,
                            "AllocationStartTime": "2014-02-26 00:00",
                            "RequirementResourceTypeName": "A320 Ground Instructor",
                            "RequirementEndTimeDelta": 0,
                            "ResourceRequirementID": 3534,
                            "AllocationEndTime": "2014-02-26 03:00",
                            "RequirementResourceTypeID": 162
                        }
                    ]
                },
                {
                    "ActivityStartDate": "2014-02-25 00:00",
                    "ActivityID": 3464,
                    "ResourceAllocations": [
                        {
                            "AssignedResourceID": 104,
                            "RequirementStartTimeDelta": 0,
                            "CertificationRequirementIDs": null,
                            "AllocationStartTime": "2014-02-25 00:00",
                            "RequirementResourceTypeName": "A320 Ground Instructor",
                            "RequirementEndTimeDelta": 0,
                            "ResourceRequirementID": 3536,
                            "AllocationEndTime": "2014-02-25 04:00",
                            "RequirementResourceTypeID": 162
                        },
                        {
                            "AssignedResourceID": 69,
                            "RequirementStartTimeDelta": 0,
                            "CertificationRequirementIDs": null,
                            "AllocationStartTime": "2014-02-25 00:00",
                            "RequirementResourceTypeName": "Rooms",
                            "RequirementEndTimeDelta": 0,
                            "ResourceRequirementID": 3535,
                            "AllocationEndTime": "2014-02-25 04:00",
                            "RequirementResourceTypeID": 27
                        }
                    ]
                },
                {
                    "ActivityStartDate": "2014-02-25 00:00",
                    "ActivityID": 3465,
                    "ResourceAllocations": [
                        {
                            "AssignedResourceID": 69,
                            "RequirementStartTimeDelta": 0,
                            "CertificationRequirementIDs": null,
                            "AllocationStartTime": "2014-02-25 00:00",
                            "RequirementResourceTypeName": "Rooms",
                            "RequirementEndTimeDelta": 0,
                            "ResourceRequirementID": 3537,
                            "AllocationEndTime": "2014-02-25 02:00",
                            "RequirementResourceTypeID": 27
                        },
                        {
                            "AssignedResourceID": 89,
                            "RequirementStartTimeDelta": 0,
                            "CertificationRequirementIDs": null,
                            "AllocationStartTime": "2014-02-25 00:00",
                            "RequirementResourceTypeName": "A320 Flight Instructor",
                            "RequirementEndTimeDelta": 0,
                            "ResourceRequirementID": 3538,
                            "AllocationEndTime": "2014-02-25 02:00",
                            "RequirementResourceTypeID": 138
                        }
                    ]
                },
                {
                    "ActivityStartDate": "2014-02-25 00:00",
                    "ActivityID": 3466,
                    "ResourceAllocations": [
                        {
                            "AssignedResourceID": 89,
                            "RequirementStartTimeDelta": 0,
                            "CertificationRequirementIDs": null,
                            "AllocationStartTime": "2014-02-25 00:00",
                            "RequirementResourceTypeName": "A320 Flight Instructor",
                            "RequirementEndTimeDelta": 0,
                            "ResourceRequirementID": 3539,
                            "AllocationEndTime": "2014-02-25 08:00",
                            "RequirementResourceTypeID": 138
                        },
                        {
                            "AssignedResourceID": 66,
                            "RequirementStartTimeDelta": 0,
                            "CertificationRequirementIDs": null,
                            "AllocationStartTime": "2014-02-25 00:00",
                            "RequirementResourceTypeName": "A320-FFS",
                            "RequirementEndTimeDelta": 0,
                            "ResourceRequirementID": 3540,
                            "AllocationEndTime": "2014-02-25 08:00",
                            "RequirementResourceTypeID": 160
                        }
                    ]
                },
                {
                    "ActivityStartDate": "2014-02-27 00:00",
                    "ActivityID": 3467,
                    "ResourceAllocations": [
                        {
                            "AssignedResourceID": 69,
                            "RequirementStartTimeDelta": 0,
                            "CertificationRequirementIDs": null,
                            "AllocationStartTime": "2014-02-27 00:00",
                            "RequirementResourceTypeName": "Rooms",
                            "RequirementEndTimeDelta": 0,
                            "ResourceRequirementID": 3541,
                            "AllocationEndTime": "2014-02-27 02:00",
                            "RequirementResourceTypeID": 27
                        },
                        {
                            "AssignedResourceID": 89,
                            "RequirementStartTimeDelta": 0,
                            "CertificationRequirementIDs": null,
                            "AllocationStartTime": "2014-02-27 00:00",
                            "RequirementResourceTypeName": "A320 Flight Instructor",
                            "RequirementEndTimeDelta": 0,
                            "ResourceRequirementID": 3542,
                            "AllocationEndTime": "2014-02-27 02:00",
                            "RequirementResourceTypeID": 138
                        }
                    ]
                },
                {
                    "ActivityStartDate": "2014-02-27 00:00",
                    "ActivityID": 3468,
                    "ResourceAllocations": [
                        {
                            "AssignedResourceID": 89,
                            "RequirementStartTimeDelta": 0,
                            "CertificationRequirementIDs": null,
                            "AllocationStartTime": "2014-02-27 00:00",
                            "RequirementResourceTypeName": "A320 Flight Instructor",
                            "RequirementEndTimeDelta": 0,
                            "ResourceRequirementID": 3544,
                            "AllocationEndTime": "2014-02-27 02:00",
                            "RequirementResourceTypeID": 138
                        },
                        {
                            "AssignedResourceID": 69,
                            "RequirementStartTimeDelta": 0,
                            "CertificationRequirementIDs": null,
                            "AllocationStartTime": "2014-02-27 00:00",
                            "RequirementResourceTypeName": "Rooms",
                            "RequirementEndTimeDelta": 0,
                            "ResourceRequirementID": 3543,
                            "AllocationEndTime": "2014-02-27 02:00",
                            "RequirementResourceTypeID": 27
                        }
                    ]
                },
                {
                    "ActivityStartDate": "2014-02-26 00:00",
                    "ActivityID": 3469,
                    "ResourceAllocations": [
                        {
                            "AssignedResourceID": 89,
                            "RequirementStartTimeDelta": 0,
                            "CertificationRequirementIDs": null,
                            "AllocationStartTime": "2014-02-26 00:00",
                            "RequirementResourceTypeName": "A320 Flight Instructor",
                            "RequirementEndTimeDelta": 0,
                            "ResourceRequirementID": 3545,
                            "AllocationEndTime": "2014-02-26 04:00",
                            "RequirementResourceTypeID": 138
                        },
                        {
                            "AssignedResourceID": 66,
                            "RequirementStartTimeDelta": 0,
                            "CertificationRequirementIDs": null,
                            "AllocationStartTime": "2014-02-26 00:00",
                            "RequirementResourceTypeName": "A320-FFS",
                            "RequirementEndTimeDelta": 0,
                            "ResourceRequirementID": 3546,
                            "AllocationEndTime": "2014-02-26 04:00",
                            "RequirementResourceTypeID": 160
                        }
                    ]
                },
                {
                    "ActivityStartDate": "2014-02-27 00:00",
                    "ActivityID": 3470,
                    "ResourceAllocations": [
                        {
                            "AssignedResourceID": 69,
                            "RequirementStartTimeDelta": 0,
                            "CertificationRequirementIDs": null,
                            "AllocationStartTime": "2014-02-27 00:00",
                            "RequirementResourceTypeName": "Rooms",
                            "RequirementEndTimeDelta": 0,
                            "ResourceRequirementID": 3547,
                            "AllocationEndTime": "2014-02-27 02:00",
                            "RequirementResourceTypeID": 27
                        },
                        {
                            "AssignedResourceID": 89,
                            "RequirementStartTimeDelta": 0,
                            "CertificationRequirementIDs": null,
                            "AllocationStartTime": "2014-02-27 00:00",
                            "RequirementResourceTypeName": "A320 Flight Instructor",
                            "RequirementEndTimeDelta": 0,
                            "ResourceRequirementID": 3548,
                            "AllocationEndTime": "2014-02-27 02:00",
                            "RequirementResourceTypeID": 138
                        }
                    ]
                }
            ]
        }
    ],
    "Pairings": []
}