{
    "TrainingPrograms": [
        {
            "TrainingProgramEndDate": "2014-09-29 04:00",
            "TrainingProgramStartDate": "2014-09-29 00:00",
            "AnsweredRequests": [
                {
                    "PositionID": null,
                    "TrainingRequestID": 3800,
                    "PositionName": null,
                    "ParticipantID": null
                }
            ],
            "ScheduledStatus": true,
            "MasterPlanID": 7104,
            "TrainingRequestID": 3800,
            "Events": [
                {
                    "ActivityStartDate": "2014-09-29 00:00",
                    "ActivityID": 3259,
                    "ResourceAllocations": [
                        {
                            "AssignedResourceID": 69,
                            "RequirementStartTimeDelta": 0,
                            "CertificationRequirementIDs": null,
                            "AllocationStartTime": "2014-09-29 00:00",
                            "RequirementResourceTypeName": "Rooms",
                            "RequirementEndTimeDelta": 0,
                            "ResourceRequirementID": 3456,
                            "AllocationEndTime": "2014-09-29 03:00",
                            "RequirementResourceTypeID": 27
                        },
                        {
                            "AssignedResourceID": 104,
                            "RequirementStartTimeDelta": 0,
                            "CertificationRequirementIDs": null,
                            "AllocationStartTime": "2014-09-29 00:00",
                            "RequirementResourceTypeName": "A320 Ground Instructor",
                            "RequirementEndTimeDelta": 0,
                            "ResourceRequirementID": 3455,
                            "AllocationEndTime": "2014-09-29 03:00",
                            "RequirementResourceTypeID": 162
                        }
                    ]
                },
                {
                    "ActivityStartDate": "2014-09-29 00:00",
                    "ActivityID": 3260,
                    "ResourceAllocations": [
                        {
                            "AssignedResourceID": 104,
                            "RequirementStartTimeDelta": 0,
                            "CertificationRequirementIDs": null,
                            "AllocationStartTime": "2014-09-29 00:00",
                            "RequirementResourceTypeName": "A320 Ground Instructor",
                            "RequirementEndTimeDelta": 0,
                            "ResourceRequirementID": 3457,
                            "AllocationEndTime": "2014-09-29 03:00",
                            "RequirementResourceTypeID": 162
                        },
                        {
                            "AssignedResourceID": 109,
                            "RequirementStartTimeDelta": 0,
                            "CertificationRequirementIDs": null,
                            "AllocationStartTime": "2014-09-29 00:00",
                            "RequirementResourceTypeName": "A320-PTT",
                            "RequirementEndTimeDelta": 0,
                            "ResourceRequirementID": 3458,
                            "AllocationEndTime": "2014-09-29 03:00",
                            "RequirementResourceTypeID": 163
                        }
                    ]
                },
                {
                    "ActivityStartDate": "2014-09-29 00:00",
                    "ActivityID": 3261,
                    "ResourceAllocations": [
                        {
                            "AssignedResourceID": 89,
                            "RequirementStartTimeDelta": 0,
                            "CertificationRequirementIDs": null,
                            "AllocationStartTime": "2014-09-29 00:00",
                            "RequirementResourceTypeName": "A320 Flight Instructor",
                            "RequirementEndTimeDelta": 0,
                            "ResourceRequirementID": 3459,
                            "AllocationEndTime": "2014-09-29 04:00",
                            "RequirementResourceTypeID": 138
                        },
                        {
                            "AssignedResourceID": 66,
                            "RequirementStartTimeDelta": 0,
                            "CertificationRequirementIDs": null,
                            "AllocationStartTime": "2014-09-29 00:00",
                            "RequirementResourceTypeName": "A320-FFS",
                            "RequirementEndTimeDelta": 0,
                            "ResourceRequirementID": 3460,
                            "AllocationEndTime": "2014-09-29 04:00",
                            "RequirementResourceTypeID": 160
                        }
                    ]
                }
            ]
        },
        {
            "TrainingProgramEndDate": "2014-09-29 04:00",
            "TrainingProgramStartDate": "2014-09-29 00:00",
            "AnsweredRequests": [
                {
                    "PositionID": null,
                    "TrainingRequestID": 3801,
                    "PositionName": null,
                    "ParticipantID": null
                }
            ],
            "ScheduledStatus": true,
            "MasterPlanID": 7104,
            "TrainingRequestID": 3801,
            "Events": [
                {
                    "ActivityStartDate": "2014-09-29 00:00",
                    "ActivityID": 3259,
                    "ResourceAllocations": [
                        {
                            "AssignedResourceID": 69,
                            "RequirementStartTimeDelta": 0,
                            "CertificationRequirementIDs": null,
                            "AllocationStartTime": "2014-09-29 00:00",
                            "RequirementResourceTypeName": "Rooms",
                            "RequirementEndTimeDelta": 0,
                            "ResourceRequirementID": 3456,
                            "AllocationEndTime": "2014-09-29 03:00",
                            "RequirementResourceTypeID": 27
                        },
                        {
                            "AssignedResourceID": 104,
                            "RequirementStartTimeDelta": 0,
                            "CertificationRequirementIDs": null,
                            "AllocationStartTime": "2014-09-29 00:00",
                            "RequirementResourceTypeName": "A320 Ground Instructor",
                            "RequirementEndTimeDelta": 0,
                            "ResourceRequirementID": 3455,
                            "AllocationEndTime": "2014-09-29 03:00",
                            "RequirementResourceTypeID": 162
                        }
                    ]
                },
                {
                    "ActivityStartDate": "2014-09-29 00:00",
                    "ActivityID": 3260,
                    "ResourceAllocations": [
                        {
                            "AssignedResourceID": 104,
                            "RequirementStartTimeDelta": 0,
                            "CertificationRequirementIDs": null,
                            "AllocationStartTime": "2014-09-29 00:00",
                            "RequirementResourceTypeName": "A320 Ground Instructor",
                            "RequirementEndTimeDelta": 0,
                            "ResourceRequirementID": 3457,
                            "AllocationEndTime": "2014-09-29 03:00",
                            "RequirementResourceTypeID": 162
                        },
                        {
                            "AssignedResourceID": 109,
                            "RequirementStartTimeDelta": 0,
                            "CertificationRequirementIDs": null,
                            "AllocationStartTime": "2014-09-29 00:00",
                            "RequirementResourceTypeName": "A320-PTT",
                            "RequirementEndTimeDelta": 0,
                            "ResourceRequirementID": 3458,
                            "AllocationEndTime": "2014-09-29 03:00",
                            "RequirementResourceTypeID": 163
                        }
                    ]
                },
                {
                    "ActivityStartDate": "2014-09-29 00:00",
                    "ActivityID": 3261,
                    "ResourceAllocations": [
                        {
                            "AssignedResourceID": 89,
                            "RequirementStartTimeDelta": 0,
                            "CertificationRequirementIDs": null,
                            "AllocationStartTime": "2014-09-29 00:00",
                            "RequirementResourceTypeName": "A320 Flight Instructor",
                            "RequirementEndTimeDelta": 0,
                            "ResourceRequirementID": 3459,
                            "AllocationEndTime": "2014-09-29 04:00",
                            "RequirementResourceTypeID": 138
                        },
                        {
                            "AssignedResourceID": 66,
                            "RequirementStartTimeDelta": 0,
                            "CertificationRequirementIDs": null,
                            "AllocationStartTime": "2014-09-29 00:00",
                            "RequirementResourceTypeName": "A320-FFS",
                            "RequirementEndTimeDelta": 0,
                            "ResourceRequirementID": 3460,
                            "AllocationEndTime": "2014-09-29 04:00",
                            "RequirementResourceTypeID": 160
                        }
                    ]
                }
            ]
        },
        {
            "TrainingProgramEndDate": "2014-09-29 07:00",
            "TrainingProgramStartDate": "2014-09-17 00:00",
            "AnsweredRequests": [
                {
                    "PositionID": null,
                    "TrainingRequestID": 3798,
                    "PositionName": null,
                    "ParticipantID": null
                }
            ],
            "ScheduledStatus": true,
            "MasterPlanID": 6228,
            "TrainingRequestID": 3798,
            "Events": [
                {
                    "ActivityStartDate": "2014-09-24 00:00",
                    "ActivityID": 2452,
                    "ResourceAllocations": []
                },
                {
                    "ActivityStartDate": "2014-09-17 00:00",
                    "ActivityID": 2453,
                    "ResourceAllocations": []
                },
                {
                    "ActivityStartDate": "2014-09-28 00:00",
                    "ActivityID": 2454,
                    "ResourceAllocations": []
                },
                {
                    "ActivityStartDate": "2014-09-24 00:00",
                    "ActivityID": 2455,
                    "ResourceAllocations": []
                },
                {
                    "ActivityStartDate": "2014-09-27 00:00",
                    "ActivityID": 2456,
                    "ResourceAllocations": []
                },
                {
                    "ActivityStartDate": "2014-09-29 00:00",
                    "ActivityID": 2457,
                    "ResourceAllocations": []
                },
                {
                    "ActivityStartDate": "2014-09-29 00:00",
                    "ActivityID": 2458,
                    "ResourceAllocations": []
                },
                {
                    "ActivityStartDate": "2014-09-21 00:00",
                    "ActivityID": 2459,
                    "ResourceAllocations": []
                },
                {
                    "ActivityStartDate": "2014-09-25 00:00",
                    "ActivityID": 2460,
                    "ResourceAllocations": []
                },
                {
                    "ActivityStartDate": "2014-09-17 00:00",
                    "ActivityID": 2461,
                    "ResourceAllocations": []
                },
                {
                    "ActivityStartDate": "2014-09-18 00:00",
                    "ActivityID": 2462,
                    "ResourceAllocations": []
                },
                {
                    "ActivityStartDate": "2014-09-22 00:00",
                    "ActivityID": 2463,
                    "ResourceAllocations": []
                },
                {
                    "ActivityStartDate": "2014-09-27 00:00",
                    "ActivityID": 2464,
                    "ResourceAllocations": []
                },
                {
                    "ActivityStartDate": "2014-09-25 00:00",
                    "ActivityID": 2465,
                    "ResourceAllocations": []
                },
                {
                    "ActivityStartDate": "2014-09-21 00:00",
                    "ActivityID": 2466,
                    "ResourceAllocations": []
                },
                {
                    "ActivityStartDate": "2014-09-22 00:00",
                    "ActivityID": 2467,
                    "ResourceAllocations": []
                },
                {
                    "ActivityStartDate": "2014-09-23 00:00",
                    "ActivityID": 2468,
                    "ResourceAllocations": []
                },
                {
                    "ActivityStartDate": "2014-09-20 00:00",
                    "ActivityID": 2469,
                    "ResourceAllocations": []
                },
                {
                    "ActivityStartDate": "2014-09-20 00:00",
                    "ActivityID": 2470,
                    "ResourceAllocations": []
                },
                {
                    "ActivityStartDate": "2014-09-28 00:00",
                    "ActivityID": 2471,
                    "ResourceAllocations": []
                },
                {
                    "ActivityStartDate": "2014-09-26 00:00",
                    "ActivityID": 2472,
                    "ResourceAllocations": []
                },
                {
                    "ActivityStartDate": "2014-09-19 00:00",
                    "ActivityID": 2473,
                    "ResourceAllocations": []
                },
                {
                    "ActivityStartDate": "2014-09-19 00:00",
                    "ActivityID": 2474,
                    "ResourceAllocations": []
                },
                {
                    "ActivityStartDate": "2014-09-18 00:00",
                    "ActivityID": 2475,
                    "ResourceAllocations": []
                },
                {
                    "ActivityStartDate": "2014-09-26 00:00",
                    "ActivityID": 2476,
                    "ResourceAllocations": []
                },
                {
                    "ActivityStartDate": "2014-09-19 00:00",
                    "ActivityID": 2477,
                    "ResourceAllocations": []
                },
                {
                    "ActivityStartDate": "2014-09-23 00:00",
                    "ActivityID": 2478,
                    "ResourceAllocations": []
                }
            ]
        },
        {
            "TrainingProgramEndDate": "2014-09-29 06:00",
            "TrainingProgramStartDate": "2014-09-17 00:00",
            "AnsweredRequests": [
                {
                    "PositionID": null,
                    "TrainingRequestID": 3799,
                    "PositionName": null,
                    "ParticipantID": null
                }
            ],
            "ScheduledStatus": true,
            "MasterPlanID": 6228,
            "TrainingRequestID": 3799,
            "Events": [
                {
                    "ActivityStartDate": "2014-09-18 00:00",
                    "ActivityID": 2452,
                    "ResourceAllocations": []
                },
                {
                    "ActivityStartDate": "2014-09-20 00:00",
                    "ActivityID": 2453,
                    "ResourceAllocations": []
                },
                {
                    "ActivityStartDate": "2014-09-27 00:00",
                    "ActivityID": 2454,
                    "ResourceAllocations": []
                },
                {
                    "ActivityStartDate": "2014-09-28 00:00",
                    "ActivityID": 2455,
                    "ResourceAllocations": []
                },
                {
                    "ActivityStartDate": "2014-09-21 00:00",
                    "ActivityID": 2456,
                    "ResourceAllocations": []
                },
                {
                    "ActivityStartDate": "2014-09-23 00:00",
                    "ActivityID": 2457,
                    "ResourceAllocations": []
                },
                {
                    "ActivityStartDate": "2014-09-26 00:00",
                    "ActivityID": 2458,
                    "ResourceAllocations": []
                },
                {
                    "ActivityStartDate": "2014-09-24 00:00",
                    "ActivityID": 2459,
                    "ResourceAllocations": []
                },
                {
                    "ActivityStartDate": "2014-09-18 00:00",
                    "ActivityID": 2460,
                    "ResourceAllocations": []
                },
                {
                    "ActivityStartDate": "2014-09-25 00:00",
                    "ActivityID": 2461,
                    "ResourceAllocations": []
                },
                {
                    "ActivityStartDate": "2014-09-19 00:00",
                    "ActivityID": 2462,
                    "ResourceAllocations": []
                },
                {
                    "ActivityStartDate": "2014-09-22 00:00",
                    "ActivityID": 2463,
                    "ResourceAllocations": []
                },
                {
                    "ActivityStartDate": "2014-09-25 00:00",
                    "ActivityID": 2464,
                    "ResourceAllocations": []
                },
                {
                    "ActivityStartDate": "2014-09-26 00:00",
                    "ActivityID": 2465,
                    "ResourceAllocations": []
                },
                {
                    "ActivityStartDate": "2014-09-17 00:00",
                    "ActivityID": 2466,
                    "ResourceAllocations": []
                },
                {
                    "ActivityStartDate": "2014-09-22 00:00",
                    "ActivityID": 2467,
                    "ResourceAllocations": []
                },
                {
                    "ActivityStartDate": "2014-09-21 00:00",
                    "ActivityID": 2468,
                    "ResourceAllocations": []
                },
                {
                    "ActivityStartDate": "2014-09-19 00:00",
                    "ActivityID": 2469,
                    "ResourceAllocations": []
                },
                {
                    "ActivityStartDate": "2014-09-28 00:00",
                    "ActivityID": 2470,
                    "ResourceAllocations": []
                },
                {
                    "ActivityStartDate": "2014-09-29 00:00",
                    "ActivityID": 2471,
                    "ResourceAllocations": []
                },
                {
                    "ActivityStartDate": "2014-09-20 00:00",
                    "ActivityID": 2472,
                    "ResourceAllocations": []
                },
                {
                    "ActivityStartDate": "2014-09-24 00:00",
                    "ActivityID": 2473,
                    "ResourceAllocations": []
                },
                {
                    "ActivityStartDate": "2014-09-17 00:00",
                    "ActivityID": 2474,
                    "ResourceAllocations": []
                },
                {
                    "ActivityStartDate": "2014-09-23 00:00",
                    "ActivityID": 2475,
                    "ResourceAllocations": []
                },
                {
                    "ActivityStartDate": "2014-09-27 00:00",
                    "ActivityID": 2476,
                    "ResourceAllocations": []
                },
                {
                    "ActivityStartDate": "2014-09-29 00:00",
                    "ActivityID": 2477,
                    "ResourceAllocations": []
                },
                {
                    "ActivityStartDate": "2014-09-29 00:00",
                    "ActivityID": 2478,
                    "ResourceAllocations": []
                }
            ]
        }
    ],
    "Pairings": []
}