{
    "TrainingPrograms": [
        {
            "TrainingProgramEndDate": "2014-02-06 10:00",
            "TrainingProgramStartDate": "2014-02-05 00:00",
            "AnsweredRequests": [
                {
                    "PositionID": 1,
                    "TrainingRequestID": 226,
                    "PositionName": "Captain",
                    "ParticipantID": 7155
                }
            ],
            "ScheduledStatus": true,
            "MasterPlanID": 9528,
            "TrainingRequestID": 226,
            "Events": [
                {
                    "ActivityStartDate": "2014-02-05 00:00",
                    "ActivityID": 4532,
                    "ResourceAllocations": [
                        {
                            "AssignedResourceID": 66,
                            "RequirementStartTimeDelta": 0,
                            "CertificationRequirementIDs": null,
                            "AllocationStartTime": "2014-02-05 00:00",
                            "RequirementResourceTypeName": "A320-FFS",
                            "RequirementEndTimeDelta": 0,
                            "ResourceRequirementID": 5824,
                            "AllocationEndTime": "2014-02-05 10:00",
                            "RequirementResourceTypeID": 160
                        },
                        {
                            "AssignedResourceID": 89,
                            "RequirementStartTimeDelta": 0,
                            "CertificationRequirementIDs": null,
                            "AllocationStartTime": "2014-02-05 00:00",
                            "RequirementResourceTypeName": "A320 Flight Instructor",
                            "RequirementEndTimeDelta": 0,
                            "ResourceRequirementID": 5819,
                            "AllocationEndTime": "2014-02-05 10:00",
                            "RequirementResourceTypeID": 138
                        }
                    ]
                },
                {
                    "ActivityStartDate": "2014-02-06 00:00",
                    "ActivityID": 4533,
                    "ResourceAllocations": [
                        {
                            "AssignedResourceID": 69,
                            "RequirementStartTimeDelta": 0,
                            "CertificationRequirementIDs": null,
                            "AllocationStartTime": "2014-02-06 00:00",
                            "RequirementResourceTypeName": "Rooms",
                            "RequirementEndTimeDelta": 0,
                            "ResourceRequirementID": 5821,
                            "AllocationEndTime": "2014-02-06 10:00",
                            "RequirementResourceTypeID": 27
                        },
                        {
                            "AssignedResourceID": 89,
                            "RequirementStartTimeDelta": 0,
                            "CertificationRequirementIDs": null,
                            "AllocationStartTime": "2014-02-06 00:00",
                            "RequirementResourceTypeName": "A320 Flight Instructor",
                            "RequirementEndTimeDelta": 0,
                            "ResourceRequirementID": 5822,
                            "AllocationEndTime": "2014-02-06 10:00",
                            "RequirementResourceTypeID": 138
                        },
                        {
                            "AssignedResourceID": 104,
                            "RequirementStartTimeDelta": 0,
                            "CertificationRequirementIDs": null,
                            "AllocationStartTime": "2014-02-06 00:00",
                            "RequirementResourceTypeName": "A320 Ground Instructor",
                            "RequirementEndTimeDelta": 0,
                            "ResourceRequirementID": 5823,
                            "AllocationEndTime": "2014-02-06 10:00",
                            "RequirementResourceTypeID": 162
                        }
                    ]
                }
            ]
        },
        {
            "TrainingProgramEndDate": "2014-02-15 10:00",
            "TrainingProgramStartDate": "2014-02-14 00:00",
            "AnsweredRequests": [
                {
                    "PositionID": 1,
                    "TrainingRequestID": 245,
                    "PositionName": "Captain",
                    "ParticipantID": 7203
                }
            ],
            "ScheduledStatus": true,
            "MasterPlanID": 9528,
            "TrainingRequestID": 245,
            "Events": [
                {
                    "ActivityStartDate": "2014-02-15 00:00",
                    "ActivityID": 4532,
                    "ResourceAllocations": [
                        {
                            "AssignedResourceID": 66,
                            "RequirementStartTimeDelta": 0,
                            "CertificationRequirementIDs": null,
                            "AllocationStartTime": "2014-02-15 00:00",
                            "RequirementResourceTypeName": "A320-FFS",
                            "RequirementEndTimeDelta": 0,
                            "ResourceRequirementID": 5824,
                            "AllocationEndTime": "2014-02-15 10:00",
                            "RequirementResourceTypeID": 160
                        },
                        {
                            "AssignedResourceID": 89,
                            "RequirementStartTimeDelta": 0,
                            "CertificationRequirementIDs": null,
                            "AllocationStartTime": "2014-02-15 00:00",
                            "RequirementResourceTypeName": "A320 Flight Instructor",
                            "RequirementEndTimeDelta": 0,
                            "ResourceRequirementID": 5819,
                            "AllocationEndTime": "2014-02-15 10:00",
                            "RequirementResourceTypeID": 138
                        }
                    ]
                },
                {
                    "ActivityStartDate": "2014-02-14 00:00",
                    "ActivityID": 4533,
                    "ResourceAllocations": [
                        {
                            "AssignedResourceID": 69,
                            "RequirementStartTimeDelta": 0,
                            "CertificationRequirementIDs": null,
                            "AllocationStartTime": "2014-02-14 00:00",
                            "RequirementResourceTypeName": "Rooms",
                            "RequirementEndTimeDelta": 0,
                            "ResourceRequirementID": 5821,
                            "AllocationEndTime": "2014-02-14 10:00",
                            "RequirementResourceTypeID": 27
                        },
                        {
                            "AssignedResourceID": 89,
                            "RequirementStartTimeDelta": 0,
                            "CertificationRequirementIDs": null,
                            "AllocationStartTime": "2014-02-14 00:00",
                            "RequirementResourceTypeName": "A320 Flight Instructor",
                            "RequirementEndTimeDelta": 0,
                            "ResourceRequirementID": 5822,
                            "AllocationEndTime": "2014-02-14 10:00",
                            "RequirementResourceTypeID": 138
                        },
                        {
                            "AssignedResourceID": 104,
                            "RequirementStartTimeDelta": 0,
                            "CertificationRequirementIDs": null,
                            "AllocationStartTime": "2014-02-14 00:00",
                            "RequirementResourceTypeName": "A320 Ground Instructor",
                            "RequirementEndTimeDelta": 0,
                            "ResourceRequirementID": 5823,
                            "AllocationEndTime": "2014-02-14 10:00",
                            "RequirementResourceTypeID": 162
                        }
                    ]
                }
            ]
        },
        {
            "TrainingProgramEndDate": "2014-02-06 10:00",
            "TrainingProgramStartDate": "2014-02-03 00:00",
            "AnsweredRequests": [
                {
                    "PositionID": 1,
                    "TrainingRequestID": 243,
                    "PositionName": "Captain",
                    "ParticipantID": 7201
                }
            ],
            "ScheduledStatus": true,
            "MasterPlanID": 9528,
            "TrainingRequestID": 243,
            "Events": [
                {
                    "ActivityStartDate": "2014-02-03 00:00",
                    "ActivityID": 4532,
                    "ResourceAllocations": [
                        {
                            "AssignedResourceID": 66,
                            "RequirementStartTimeDelta": 0,
                            "CertificationRequirementIDs": null,
                            "AllocationStartTime": "2014-02-03 00:00",
                            "RequirementResourceTypeName": "A320-FFS",
                            "RequirementEndTimeDelta": 0,
                            "ResourceRequirementID": 5824,
                            "AllocationEndTime": "2014-02-03 10:00",
                            "RequirementResourceTypeID": 160
                        },
                        {
                            "AssignedResourceID": 89,
                            "RequirementStartTimeDelta": 0,
                            "CertificationRequirementIDs": null,
                            "AllocationStartTime": "2014-02-03 00:00",
                            "RequirementResourceTypeName": "A320 Flight Instructor",
                            "RequirementEndTimeDelta": 0,
                            "ResourceRequirementID": 5819,
                            "AllocationEndTime": "2014-02-03 10:00",
                            "RequirementResourceTypeID": 138
                        }
                    ]
                },
                {
                    "ActivityStartDate": "2014-02-06 00:00",
                    "ActivityID": 4533,
                    "ResourceAllocations": [
                        {
                            "AssignedResourceID": 69,
                            "RequirementStartTimeDelta": 0,
                            "CertificationRequirementIDs": null,
                            "AllocationStartTime": "2014-02-06 00:00",
                            "RequirementResourceTypeName": "Rooms",
                            "RequirementEndTimeDelta": 0,
                            "ResourceRequirementID": 5821,
                            "AllocationEndTime": "2014-02-06 10:00",
                            "RequirementResourceTypeID": 27
                        },
                        {
                            "AssignedResourceID": 89,
                            "RequirementStartTimeDelta": 0,
                            "CertificationRequirementIDs": null,
                            "AllocationStartTime": "2014-02-06 00:00",
                            "RequirementResourceTypeName": "A320 Flight Instructor",
                            "RequirementEndTimeDelta": 0,
                            "ResourceRequirementID": 5822,
                            "AllocationEndTime": "2014-02-06 10:00",
                            "RequirementResourceTypeID": 138
                        },
                        {
                            "AssignedResourceID": 104,
                            "RequirementStartTimeDelta": 0,
                            "CertificationRequirementIDs": null,
                            "AllocationStartTime": "2014-02-06 00:00",
                            "RequirementResourceTypeName": "A320 Ground Instructor",
                            "RequirementEndTimeDelta": 0,
                            "ResourceRequirementID": 5823,
                            "AllocationEndTime": "2014-02-06 10:00",
                            "RequirementResourceTypeID": 162
                        }
                    ]
                }
            ]
        },
        {
            "TrainingProgramEndDate": "2014-02-06 10:00",
            "TrainingProgramStartDate": "2014-02-05 00:00",
            "AnsweredRequests": [
                {
                    "PositionID": 1,
                    "TrainingRequestID": 241,
                    "PositionName": "Captain",
                    "ParticipantID": 7199
                }
            ],
            "ScheduledStatus": true,
            "MasterPlanID": 9528,
            "TrainingRequestID": 241,
            "Events": [
                {
                    "ActivityStartDate": "2014-02-06 00:00",
                    "ActivityID": 4532,
                    "ResourceAllocations": [
                        {
                            "AssignedResourceID": 66,
                            "RequirementStartTimeDelta": 0,
                            "CertificationRequirementIDs": null,
                            "AllocationStartTime": "2014-02-06 00:00",
                            "RequirementResourceTypeName": "A320-FFS",
                            "RequirementEndTimeDelta": 0,
                            "ResourceRequirementID": 5824,
                            "AllocationEndTime": "2014-02-06 10:00",
                            "RequirementResourceTypeID": 160
                        },
                        {
                            "AssignedResourceID": 89,
                            "RequirementStartTimeDelta": 0,
                            "CertificationRequirementIDs": null,
                            "AllocationStartTime": "2014-02-06 00:00",
                            "RequirementResourceTypeName": "A320 Flight Instructor",
                            "RequirementEndTimeDelta": 0,
                            "ResourceRequirementID": 5819,
                            "AllocationEndTime": "2014-02-06 10:00",
                            "RequirementResourceTypeID": 138
                        }
                    ]
                },
                {
                    "ActivityStartDate": "2014-02-05 00:00",
                    "ActivityID": 4533,
                    "ResourceAllocations": [
                        {
                            "AssignedResourceID": 69,
                            "RequirementStartTimeDelta": 0,
                            "CertificationRequirementIDs": null,
                            "AllocationStartTime": "2014-02-05 00:00",
                            "RequirementResourceTypeName": "Rooms",
                            "RequirementEndTimeDelta": 0,
                            "ResourceRequirementID": 5821,
                            "AllocationEndTime": "2014-02-05 10:00",
                            "RequirementResourceTypeID": 27
                        },
                        {
                            "AssignedResourceID": 89,
                            "RequirementStartTimeDelta": 0,
                            "CertificationRequirementIDs": null,
                            "AllocationStartTime": "2014-02-05 00:00",
                            "RequirementResourceTypeName": "A320 Flight Instructor",
                            "RequirementEndTimeDelta": 0,
                            "ResourceRequirementID": 5822,
                            "AllocationEndTime": "2014-02-05 10:00",
                            "RequirementResourceTypeID": 138
                        },
                        {
                            "AssignedResourceID": 104,
                            "RequirementStartTimeDelta": 0,
                            "CertificationRequirementIDs": null,
                            "AllocationStartTime": "2014-02-05 00:00",
                            "RequirementResourceTypeName": "A320 Ground Instructor",
                            "RequirementEndTimeDelta": 0,
                            "ResourceRequirementID": 5823,
                            "AllocationEndTime": "2014-02-05 10:00",
                            "RequirementResourceTypeID": 162
                        }
                    ]
                }
            ]
        },
        {
            "TrainingProgramEndDate": "2014-02-06 10:00",
            "TrainingProgramStartDate": "2014-02-05 00:00",
            "AnsweredRequests": [
                {
                    "PositionID": 1,
                    "TrainingRequestID": 235,
                    "PositionName": "Captain",
                    "ParticipantID": 7175
                }
            ],
            "ScheduledStatus": true,
            "MasterPlanID": 9528,
            "TrainingRequestID": 235,
            "Events": [
                {
                    "ActivityStartDate": "2014-02-06 00:00",
                    "ActivityID": 4532,
                    "ResourceAllocations": [
                        {
                            "AssignedResourceID": 66,
                            "RequirementStartTimeDelta": 0,
                            "CertificationRequirementIDs": null,
                            "AllocationStartTime": "2014-02-06 00:00",
                            "RequirementResourceTypeName": "A320-FFS",
                            "RequirementEndTimeDelta": 0,
                            "ResourceRequirementID": 5824,
                            "AllocationEndTime": "2014-02-06 10:00",
                            "RequirementResourceTypeID": 160
                        },
                        {
                            "AssignedResourceID": 89,
                            "RequirementStartTimeDelta": 0,
                            "CertificationRequirementIDs": null,
                            "AllocationStartTime": "2014-02-06 00:00",
                            "RequirementResourceTypeName": "A320 Flight Instructor",
                            "RequirementEndTimeDelta": 0,
                            "ResourceRequirementID": 5819,
                            "AllocationEndTime": "2014-02-06 10:00",
                            "RequirementResourceTypeID": 138
                        }
                    ]
                },
                {
                    "ActivityStartDate": "2014-02-05 00:00",
                    "ActivityID": 4533,
                    "ResourceAllocations": [
                        {
                            "AssignedResourceID": 69,
                            "RequirementStartTimeDelta": 0,
                            "CertificationRequirementIDs": null,
                            "AllocationStartTime": "2014-02-05 00:00",
                            "RequirementResourceTypeName": "Rooms",
                            "RequirementEndTimeDelta": 0,
                            "ResourceRequirementID": 5821,
                            "AllocationEndTime": "2014-02-05 10:00",
                            "RequirementResourceTypeID": 27
                        },
                        {
                            "AssignedResourceID": 89,
                            "RequirementStartTimeDelta": 0,
                            "CertificationRequirementIDs": null,
                            "AllocationStartTime": "2014-02-05 00:00",
                            "RequirementResourceTypeName": "A320 Flight Instructor",
                            "RequirementEndTimeDelta": 0,
                            "ResourceRequirementID": 5822,
                            "AllocationEndTime": "2014-02-05 10:00",
                            "RequirementResourceTypeID": 138
                        },
                        {
                            "AssignedResourceID": 104,
                            "RequirementStartTimeDelta": 0,
                            "CertificationRequirementIDs": null,
                            "AllocationStartTime": "2014-02-05 00:00",
                            "RequirementResourceTypeName": "A320 Ground Instructor",
                            "RequirementEndTimeDelta": 0,
                            "ResourceRequirementID": 5823,
                            "AllocationEndTime": "2014-02-05 10:00",
                            "RequirementResourceTypeID": 162
                        }
                    ]
                }
            ]
        },
        {
            "TrainingProgramEndDate": "2014-02-05 10:00",
            "TrainingProgramStartDate": "2014-02-04 00:00",
            "AnsweredRequests": [
                {
                    "PositionID": 1,
                    "TrainingRequestID": 237,
                    "PositionName": "Captain",
                    "ParticipantID": 7195
                }
            ],
            "ScheduledStatus": true,
            "MasterPlanID": 9528,
            "TrainingRequestID": 237,
            "Events": [
                {
                    "ActivityStartDate": "2014-02-04 00:00",
                    "ActivityID": 4532,
                    "ResourceAllocations": [
                        {
                            "AssignedResourceID": 66,
                            "RequirementStartTimeDelta": 0,
                            "CertificationRequirementIDs": null,
                            "AllocationStartTime": "2014-02-04 00:00",
                            "RequirementResourceTypeName": "A320-FFS",
                            "RequirementEndTimeDelta": 0,
                            "ResourceRequirementID": 5824,
                            "AllocationEndTime": "2014-02-04 10:00",
                            "RequirementResourceTypeID": 160
                        },
                        {
                            "AssignedResourceID": 89,
                            "RequirementStartTimeDelta": 0,
                            "CertificationRequirementIDs": null,
                            "AllocationStartTime": "2014-02-04 00:00",
                            "RequirementResourceTypeName": "A320 Flight Instructor",
                            "RequirementEndTimeDelta": 0,
                            "ResourceRequirementID": 5819,
                            "AllocationEndTime": "2014-02-04 10:00",
                            "RequirementResourceTypeID": 138
                        }
                    ]
                },
                {
                    "ActivityStartDate": "2014-02-05 00:00",
                    "ActivityID": 4533,
                    "ResourceAllocations": [
                        {
                            "AssignedResourceID": 69,
                            "RequirementStartTimeDelta": 0,
                            "CertificationRequirementIDs": null,
                            "AllocationStartTime": "2014-02-05 00:00",
                            "RequirementResourceTypeName": "Rooms",
                            "RequirementEndTimeDelta": 0,
                            "ResourceRequirementID": 5821,
                            "AllocationEndTime": "2014-02-05 10:00",
                            "RequirementResourceTypeID": 27
                        },
                        {
                            "AssignedResourceID": 89,
                            "RequirementStartTimeDelta": 0,
                            "CertificationRequirementIDs": null,
                            "AllocationStartTime": "2014-02-05 00:00",
                            "RequirementResourceTypeName": "A320 Flight Instructor",
                            "RequirementEndTimeDelta": 0,
                            "ResourceRequirementID": 5822,
                            "AllocationEndTime": "2014-02-05 10:00",
                            "RequirementResourceTypeID": 138
                        },
                        {
                            "AssignedResourceID": 104,
                            "RequirementStartTimeDelta": 0,
                            "CertificationRequirementIDs": null,
                            "AllocationStartTime": "2014-02-05 00:00",
                            "RequirementResourceTypeName": "A320 Ground Instructor",
                            "RequirementEndTimeDelta": 0,
                            "ResourceRequirementID": 5823,
                            "AllocationEndTime": "2014-02-05 10:00",
                            "RequirementResourceTypeID": 162
                        }
                    ]
                }
            ]
        },
        {
            "TrainingProgramEndDate": "2014-02-06 10:00",
            "TrainingProgramStartDate": "2014-02-05 00:00",
            "AnsweredRequests": [
                {
                    "PositionID": 1,
                    "TrainingRequestID": 239,
                    "PositionName": "Captain",
                    "ParticipantID": 7197
                }
            ],
            "ScheduledStatus": true,
            "MasterPlanID": 9528,
            "TrainingRequestID": 239,
            "Events": [
                {
                    "ActivityStartDate": "2014-02-05 00:00",
                    "ActivityID": 4532,
                    "ResourceAllocations": [
                        {
                            "AssignedResourceID": 66,
                            "RequirementStartTimeDelta": 0,
                            "CertificationRequirementIDs": null,
                            "AllocationStartTime": "2014-02-05 00:00",
                            "RequirementResourceTypeName": "A320-FFS",
                            "RequirementEndTimeDelta": 0,
                            "ResourceRequirementID": 5824,
                            "AllocationEndTime": "2014-02-05 10:00",
                            "RequirementResourceTypeID": 160
                        },
                        {
                            "AssignedResourceID": 89,
                            "RequirementStartTimeDelta": 0,
                            "CertificationRequirementIDs": null,
                            "AllocationStartTime": "2014-02-05 00:00",
                            "RequirementResourceTypeName": "A320 Flight Instructor",
                            "RequirementEndTimeDelta": 0,
                            "ResourceRequirementID": 5819,
                            "AllocationEndTime": "2014-02-05 10:00",
                            "RequirementResourceTypeID": 138
                        }
                    ]
                },
                {
                    "ActivityStartDate": "2014-02-06 00:00",
                    "ActivityID": 4533,
                    "ResourceAllocations": [
                        {
                            "AssignedResourceID": 69,
                            "RequirementStartTimeDelta": 0,
                            "CertificationRequirementIDs": null,
                            "AllocationStartTime": "2014-02-06 00:00",
                            "RequirementResourceTypeName": "Rooms",
                            "RequirementEndTimeDelta": 0,
                            "ResourceRequirementID": 5821,
                            "AllocationEndTime": "2014-02-06 10:00",
                            "RequirementResourceTypeID": 27
                        },
                        {
                            "AssignedResourceID": 89,
                            "RequirementStartTimeDelta": 0,
                            "CertificationRequirementIDs": null,
                            "AllocationStartTime": "2014-02-06 00:00",
                            "RequirementResourceTypeName": "A320 Flight Instructor",
                            "RequirementEndTimeDelta": 0,
                            "ResourceRequirementID": 5822,
                            "AllocationEndTime": "2014-02-06 10:00",
                            "RequirementResourceTypeID": 138
                        },
                        {
                            "AssignedResourceID": 104,
                            "RequirementStartTimeDelta": 0,
                            "CertificationRequirementIDs": null,
                            "AllocationStartTime": "2014-02-06 00:00",
                            "RequirementResourceTypeName": "A320 Ground Instructor",
                            "RequirementEndTimeDelta": 0,
                            "ResourceRequirementID": 5823,
                            "AllocationEndTime": "2014-02-06 10:00",
                            "RequirementResourceTypeID": 162
                        }
                    ]
                }
            ]
        },
        {
            "TrainingProgramEndDate": "2014-02-15 10:00",
            "TrainingProgramStartDate": "2014-02-14 00:00",
            "AnsweredRequests": [
                {
                    "PositionID": 1,
                    "TrainingRequestID": 273,
                    "PositionName": "Captain",
                    "ParticipantID": 7183
                }
            ],
            "ScheduledStatus": true,
            "MasterPlanID": 9528,
            "TrainingRequestID": 273,
            "Events": [
                {
                    "ActivityStartDate": "2014-02-15 00:00",
                    "ActivityID": 4532,
                    "ResourceAllocations": [
                        {
                            "AssignedResourceID": 66,
                            "RequirementStartTimeDelta": 0,
                            "CertificationRequirementIDs": null,
                            "AllocationStartTime": "2014-02-15 00:00",
                            "RequirementResourceTypeName": "A320-FFS",
                            "RequirementEndTimeDelta": 0,
                            "ResourceRequirementID": 5824,
                            "AllocationEndTime": "2014-02-15 10:00",
                            "RequirementResourceTypeID": 160
                        },
                        {
                            "AssignedResourceID": 89,
                            "RequirementStartTimeDelta": 0,
                            "CertificationRequirementIDs": null,
                            "AllocationStartTime": "2014-02-15 00:00",
                            "RequirementResourceTypeName": "A320 Flight Instructor",
                            "RequirementEndTimeDelta": 0,
                            "ResourceRequirementID": 5819,
                            "AllocationEndTime": "2014-02-15 10:00",
                            "RequirementResourceTypeID": 138
                        }
                    ]
                },
                {
                    "ActivityStartDate": "2014-02-14 00:00",
                    "ActivityID": 4533,
                    "ResourceAllocations": [
                        {
                            "AssignedResourceID": 69,
                            "RequirementStartTimeDelta": 0,
                            "CertificationRequirementIDs": null,
                            "AllocationStartTime": "2014-02-14 00:00",
                            "RequirementResourceTypeName": "Rooms",
                            "RequirementEndTimeDelta": 0,
                            "ResourceRequirementID": 5821,
                            "AllocationEndTime": "2014-02-14 10:00",
                            "RequirementResourceTypeID": 27
                        },
                        {
                            "AssignedResourceID": 89,
                            "RequirementStartTimeDelta": 0,
                            "CertificationRequirementIDs": null,
                            "AllocationStartTime": "2014-02-14 00:00",
                            "RequirementResourceTypeName": "A320 Flight Instructor",
                            "RequirementEndTimeDelta": 0,
                            "ResourceRequirementID": 5822,
                            "AllocationEndTime": "2014-02-14 10:00",
                            "RequirementResourceTypeID": 138
                        },
                        {
                            "AssignedResourceID": 104,
                            "RequirementStartTimeDelta": 0,
                            "CertificationRequirementIDs": null,
                            "AllocationStartTime": "2014-02-14 00:00",
                            "RequirementResourceTypeName": "A320 Ground Instructor",
                            "RequirementEndTimeDelta": 0,
                            "ResourceRequirementID": 5823,
                            "AllocationEndTime": "2014-02-14 10:00",
                            "RequirementResourceTypeID": 162
                        }
                    ]
                }
            ]
        },
        {
            "TrainingProgramEndDate": "2014-02-13 10:00",
            "TrainingProgramStartDate": "2014-02-12 00:00",
            "AnsweredRequests": [
                {
                    "PositionID": 1,
                    "TrainingRequestID": 275,
                    "PositionName": "Captain",
                    "ParticipantID": 7181
                }
            ],
            "ScheduledStatus": true,
            "MasterPlanID": 9528,
            "TrainingRequestID": 275,
            "Events": [
                {
                    "ActivityStartDate": "2014-02-12 00:00",
                    "ActivityID": 4532,
                    "ResourceAllocations": [
                        {
                            "AssignedResourceID": 66,
                            "RequirementStartTimeDelta": 0,
                            "CertificationRequirementIDs": null,
                            "AllocationStartTime": "2014-02-12 00:00",
                            "RequirementResourceTypeName": "A320-FFS",
                            "RequirementEndTimeDelta": 0,
                            "ResourceRequirementID": 5824,
                            "AllocationEndTime": "2014-02-12 10:00",
                            "RequirementResourceTypeID": 160
                        },
                        {
                            "AssignedResourceID": 89,
                            "RequirementStartTimeDelta": 0,
                            "CertificationRequirementIDs": null,
                            "AllocationStartTime": "2014-02-12 00:00",
                            "RequirementResourceTypeName": "A320 Flight Instructor",
                            "RequirementEndTimeDelta": 0,
                            "ResourceRequirementID": 5819,
                            "AllocationEndTime": "2014-02-12 10:00",
                            "RequirementResourceTypeID": 138
                        }
                    ]
                },
                {
                    "ActivityStartDate": "2014-02-13 00:00",
                    "ActivityID": 4533,
                    "ResourceAllocations": [
                        {
                            "AssignedResourceID": 69,
                            "RequirementStartTimeDelta": 0,
                            "CertificationRequirementIDs": null,
                            "AllocationStartTime": "2014-02-13 00:00",
                            "RequirementResourceTypeName": "Rooms",
                            "RequirementEndTimeDelta": 0,
                            "ResourceRequirementID": 5821,
                            "AllocationEndTime": "2014-02-13 10:00",
                            "RequirementResourceTypeID": 27
                        },
                        {
                            "AssignedResourceID": 89,
                            "RequirementStartTimeDelta": 0,
                            "CertificationRequirementIDs": null,
                            "AllocationStartTime": "2014-02-13 00:00",
                            "RequirementResourceTypeName": "A320 Flight Instructor",
                            "RequirementEndTimeDelta": 0,
                            "ResourceRequirementID": 5822,
                            "AllocationEndTime": "2014-02-13 10:00",
                            "RequirementResourceTypeID": 138
                        },
                        {
                            "AssignedResourceID": 104,
                            "RequirementStartTimeDelta": 0,
                            "CertificationRequirementIDs": null,
                            "AllocationStartTime": "2014-02-13 00:00",
                            "RequirementResourceTypeName": "A320 Ground Instructor",
                            "RequirementEndTimeDelta": 0,
                            "ResourceRequirementID": 5823,
                            "AllocationEndTime": "2014-02-13 10:00",
                            "RequirementResourceTypeID": 162
                        }
                    ]
                }
            ]
        },
        {
            "TrainingProgramEndDate": "2014-02-15 10:00",
            "TrainingProgramStartDate": "2014-02-14 00:00",
            "AnsweredRequests": [
                {
                    "PositionID": 1,
                    "TrainingRequestID": 269,
                    "PositionName": "Captain",
                    "ParticipantID": 7211
                }
            ],
            "ScheduledStatus": true,
            "MasterPlanID": 9528,
            "TrainingRequestID": 269,
            "Events": [
                {
                    "ActivityStartDate": "2014-02-14 00:00",
                    "ActivityID": 4532,
                    "ResourceAllocations": [
                        {
                            "AssignedResourceID": 66,
                            "RequirementStartTimeDelta": 0,
                            "CertificationRequirementIDs": null,
                            "AllocationStartTime": "2014-02-14 00:00",
                            "RequirementResourceTypeName": "A320-FFS",
                            "RequirementEndTimeDelta": 0,
                            "ResourceRequirementID": 5824,
                            "AllocationEndTime": "2014-02-14 10:00",
                            "RequirementResourceTypeID": 160
                        },
                        {
                            "AssignedResourceID": 89,
                            "RequirementStartTimeDelta": 0,
                            "CertificationRequirementIDs": null,
                            "AllocationStartTime": "2014-02-14 00:00",
                            "RequirementResourceTypeName": "A320 Flight Instructor",
                            "RequirementEndTimeDelta": 0,
                            "ResourceRequirementID": 5819,
                            "AllocationEndTime": "2014-02-14 10:00",
                            "RequirementResourceTypeID": 138
                        }
                    ]
                },
                {
                    "ActivityStartDate": "2014-02-15 00:00",
                    "ActivityID": 4533,
                    "ResourceAllocations": [
                        {
                            "AssignedResourceID": 69,
                            "RequirementStartTimeDelta": 0,
                            "CertificationRequirementIDs": null,
                            "AllocationStartTime": "2014-02-15 00:00",
                            "RequirementResourceTypeName": "Rooms",
                            "RequirementEndTimeDelta": 0,
                            "ResourceRequirementID": 5821,
                            "AllocationEndTime": "2014-02-15 10:00",
                            "RequirementResourceTypeID": 27
                        },
                        {
                            "AssignedResourceID": 89,
                            "RequirementStartTimeDelta": 0,
                            "CertificationRequirementIDs": null,
                            "AllocationStartTime": "2014-02-15 00:00",
                            "RequirementResourceTypeName": "A320 Flight Instructor",
                            "RequirementEndTimeDelta": 0,
                            "ResourceRequirementID": 5822,
                            "AllocationEndTime": "2014-02-15 10:00",
                            "RequirementResourceTypeID": 138
                        },
                        {
                            "AssignedResourceID": 104,
                            "RequirementStartTimeDelta": 0,
                            "CertificationRequirementIDs": null,
                            "AllocationStartTime": "2014-02-15 00:00",
                            "RequirementResourceTypeName": "A320 Ground Instructor",
                            "RequirementEndTimeDelta": 0,
                            "ResourceRequirementID": 5823,
                            "AllocationEndTime": "2014-02-15 10:00",
                            "RequirementResourceTypeID": 162
                        }
                    ]
                }
            ]
        },
        {
            "TrainingProgramEndDate": "2014-02-15 10:00",
            "TrainingProgramStartDate": "2014-02-14 00:00",
            "AnsweredRequests": [
                {
                    "PositionID": 1,
                    "TrainingRequestID": 277,
                    "PositionName": "Captain",
                    "ParticipantID": 7185
                }
            ],
            "ScheduledStatus": true,
            "MasterPlanID": 9528,
            "TrainingRequestID": 277,
            "Events": [
                {
                    "ActivityStartDate": "2014-02-14 00:00",
                    "ActivityID": 4532,
                    "ResourceAllocations": [
                        {
                            "AssignedResourceID": 66,
                            "RequirementStartTimeDelta": 0,
                            "CertificationRequirementIDs": null,
                            "AllocationStartTime": "2014-02-14 00:00",
                            "RequirementResourceTypeName": "A320-FFS",
                            "RequirementEndTimeDelta": 0,
                            "ResourceRequirementID": 5824,
                            "AllocationEndTime": "2014-02-14 10:00",
                            "RequirementResourceTypeID": 160
                        },
                        {
                            "AssignedResourceID": 89,
                            "RequirementStartTimeDelta": 0,
                            "CertificationRequirementIDs": null,
                            "AllocationStartTime": "2014-02-14 00:00",
                            "RequirementResourceTypeName": "A320 Flight Instructor",
                            "RequirementEndTimeDelta": 0,
                            "ResourceRequirementID": 5819,
                            "AllocationEndTime": "2014-02-14 10:00",
                            "RequirementResourceTypeID": 138
                        }
                    ]
                },
                {
                    "ActivityStartDate": "2014-02-15 00:00",
                    "ActivityID": 4533,
                    "ResourceAllocations": [
                        {
                            "AssignedResourceID": 69,
                            "RequirementStartTimeDelta": 0,
                            "CertificationRequirementIDs": null,
                            "AllocationStartTime": "2014-02-15 00:00",
                            "RequirementResourceTypeName": "Rooms",
                            "RequirementEndTimeDelta": 0,
                            "ResourceRequirementID": 5821,
                            "AllocationEndTime": "2014-02-15 10:00",
                            "RequirementResourceTypeID": 27
                        },
                        {
                            "AssignedResourceID": 89,
                            "RequirementStartTimeDelta": 0,
                            "CertificationRequirementIDs": null,
                            "AllocationStartTime": "2014-02-15 00:00",
                            "RequirementResourceTypeName": "A320 Flight Instructor",
                            "RequirementEndTimeDelta": 0,
                            "ResourceRequirementID": 5822,
                            "AllocationEndTime": "2014-02-15 10:00",
                            "RequirementResourceTypeID": 138
                        },
                        {
                            "AssignedResourceID": 104,
                            "RequirementStartTimeDelta": 0,
                            "CertificationRequirementIDs": null,
                            "AllocationStartTime": "2014-02-15 00:00",
                            "RequirementResourceTypeName": "A320 Ground Instructor",
                            "RequirementEndTimeDelta": 0,
                            "ResourceRequirementID": 5823,
                            "AllocationEndTime": "2014-02-15 10:00",
                            "RequirementResourceTypeID": 162
                        }
                    ]
                }
            ]
        },
        {
            "TrainingProgramEndDate": "2014-02-27 10:00",
            "TrainingProgramStartDate": "2014-02-26 00:00",
            "AnsweredRequests": [
                {
                    "PositionID": 1,
                    "TrainingRequestID": 279,
                    "PositionName": "Captain",
                    "ParticipantID": 7187
                }
            ],
            "ScheduledStatus": true,
            "MasterPlanID": 9528,
            "TrainingRequestID": 279,
            "Events": [
                {
                    "ActivityStartDate": "2014-02-26 00:00",
                    "ActivityID": 4532,
                    "ResourceAllocations": [
                        {
                            "AssignedResourceID": 66,
                            "RequirementStartTimeDelta": 0,
                            "CertificationRequirementIDs": null,
                            "AllocationStartTime": "2014-02-26 00:00",
                            "RequirementResourceTypeName": "A320-FFS",
                            "RequirementEndTimeDelta": 0,
                            "ResourceRequirementID": 5824,
                            "AllocationEndTime": "2014-02-26 10:00",
                            "RequirementResourceTypeID": 160
                        },
                        {
                            "AssignedResourceID": 89,
                            "RequirementStartTimeDelta": 0,
                            "CertificationRequirementIDs": null,
                            "AllocationStartTime": "2014-02-26 00:00",
                            "RequirementResourceTypeName": "A320 Flight Instructor",
                            "RequirementEndTimeDelta": 0,
                            "ResourceRequirementID": 5819,
                            "AllocationEndTime": "2014-02-26 10:00",
                            "RequirementResourceTypeID": 138
                        }
                    ]
                },
                {
                    "ActivityStartDate": "2014-02-27 00:00",
                    "ActivityID": 4533,
                    "ResourceAllocations": [
                        {
                            "AssignedResourceID": 69,
                            "RequirementStartTimeDelta": 0,
                            "CertificationRequirementIDs": null,
                            "AllocationStartTime": "2014-02-27 00:00",
                            "RequirementResourceTypeName": "Rooms",
                            "RequirementEndTimeDelta": 0,
                            "ResourceRequirementID": 5821,
                            "AllocationEndTime": "2014-02-27 10:00",
                            "RequirementResourceTypeID": 27
                        },
                        {
                            "AssignedResourceID": 89,
                            "RequirementStartTimeDelta": 0,
                            "CertificationRequirementIDs": null,
                            "AllocationStartTime": "2014-02-27 00:00",
                            "RequirementResourceTypeName": "A320 Flight Instructor",
                            "RequirementEndTimeDelta": 0,
                            "ResourceRequirementID": 5822,
                            "AllocationEndTime": "2014-02-27 10:00",
                            "RequirementResourceTypeID": 138
                        },
                        {
                            "AssignedResourceID": 104,
                            "RequirementStartTimeDelta": 0,
                            "CertificationRequirementIDs": null,
                            "AllocationStartTime": "2014-02-27 00:00",
                            "RequirementResourceTypeName": "A320 Ground Instructor",
                            "RequirementEndTimeDelta": 0,
                            "ResourceRequirementID": 5823,
                            "AllocationEndTime": "2014-02-27 10:00",
                            "RequirementResourceTypeID": 162
                        }
                    ]
                }
            ]
        },
        {
            "TrainingProgramEndDate": "2014-02-15 10:00",
            "TrainingProgramStartDate": "2014-02-14 00:00",
            "AnsweredRequests": [
                {
                    "PositionID": 1,
                    "TrainingRequestID": 249,
                    "PositionName": "Captain",
                    "ParticipantID": 7207
                }
            ],
            "ScheduledStatus": true,
            "MasterPlanID": 9528,
            "TrainingRequestID": 249,
            "Events": [
                {
                    "ActivityStartDate": "2014-02-15 00:00",
                    "ActivityID": 4532,
                    "ResourceAllocations": [
                        {
                            "AssignedResourceID": 66,
                            "RequirementStartTimeDelta": 0,
                            "CertificationRequirementIDs": null,
                            "AllocationStartTime": "2014-02-15 00:00",
                            "RequirementResourceTypeName": "A320-FFS",
                            "RequirementEndTimeDelta": 0,
                            "ResourceRequirementID": 5824,
                            "AllocationEndTime": "2014-02-15 10:00",
                            "RequirementResourceTypeID": 160
                        },
                        {
                            "AssignedResourceID": 89,
                            "RequirementStartTimeDelta": 0,
                            "CertificationRequirementIDs": null,
                            "AllocationStartTime": "2014-02-15 00:00",
                            "RequirementResourceTypeName": "A320 Flight Instructor",
                            "RequirementEndTimeDelta": 0,
                            "ResourceRequirementID": 5819,
                            "AllocationEndTime": "2014-02-15 10:00",
                            "RequirementResourceTypeID": 138
                        }
                    ]
                },
                {
                    "ActivityStartDate": "2014-02-14 00:00",
                    "ActivityID": 4533,
                    "ResourceAllocations": [
                        {
                            "AssignedResourceID": 69,
                            "RequirementStartTimeDelta": 0,
                            "CertificationRequirementIDs": null,
                            "AllocationStartTime": "2014-02-14 00:00",
                            "RequirementResourceTypeName": "Rooms",
                            "RequirementEndTimeDelta": 0,
                            "ResourceRequirementID": 5821,
                            "AllocationEndTime": "2014-02-14 10:00",
                            "RequirementResourceTypeID": 27
                        },
                        {
                            "AssignedResourceID": 89,
                            "RequirementStartTimeDelta": 0,
                            "CertificationRequirementIDs": null,
                            "AllocationStartTime": "2014-02-14 00:00",
                            "RequirementResourceTypeName": "A320 Flight Instructor",
                            "RequirementEndTimeDelta": 0,
                            "ResourceRequirementID": 5822,
                            "AllocationEndTime": "2014-02-14 10:00",
                            "RequirementResourceTypeID": 138
                        },
                        {
                            "AssignedResourceID": 104,
                            "RequirementStartTimeDelta": 0,
                            "CertificationRequirementIDs": null,
                            "AllocationStartTime": "2014-02-14 00:00",
                            "RequirementResourceTypeName": "A320 Ground Instructor",
                            "RequirementEndTimeDelta": 0,
                            "ResourceRequirementID": 5823,
                            "AllocationEndTime": "2014-02-14 10:00",
                            "RequirementResourceTypeID": 162
                        }
                    ]
                }
            ]
        },
        {
            "TrainingProgramEndDate": "2014-02-15 10:00",
            "TrainingProgramStartDate": "2014-02-14 00:00",
            "AnsweredRequests": [
                {
                    "PositionID": 1,
                    "TrainingRequestID": 271,
                    "PositionName": "Captain",
                    "ParticipantID": 7213
                }
            ],
            "ScheduledStatus": true,
            "MasterPlanID": 9528,
            "TrainingRequestID": 271,
            "Events": [
                {
                    "ActivityStartDate": "2014-02-14 00:00",
                    "ActivityID": 4532,
                    "ResourceAllocations": [
                        {
                            "AssignedResourceID": 66,
                            "RequirementStartTimeDelta": 0,
                            "CertificationRequirementIDs": null,
                            "AllocationStartTime": "2014-02-14 00:00",
                            "RequirementResourceTypeName": "A320-FFS",
                            "RequirementEndTimeDelta": 0,
                            "ResourceRequirementID": 5824,
                            "AllocationEndTime": "2014-02-14 10:00",
                            "RequirementResourceTypeID": 160
                        },
                        {
                            "AssignedResourceID": 89,
                            "RequirementStartTimeDelta": 0,
                            "CertificationRequirementIDs": null,
                            "AllocationStartTime": "2014-02-14 00:00",
                            "RequirementResourceTypeName": "A320 Flight Instructor",
                            "RequirementEndTimeDelta": 0,
                            "ResourceRequirementID": 5819,
                            "AllocationEndTime": "2014-02-14 10:00",
                            "RequirementResourceTypeID": 138
                        }
                    ]
                },
                {
                    "ActivityStartDate": "2014-02-15 00:00",
                    "ActivityID": 4533,
                    "ResourceAllocations": [
                        {
                            "AssignedResourceID": 69,
                            "RequirementStartTimeDelta": 0,
                            "CertificationRequirementIDs": null,
                            "AllocationStartTime": "2014-02-15 00:00",
                            "RequirementResourceTypeName": "Rooms",
                            "RequirementEndTimeDelta": 0,
                            "ResourceRequirementID": 5821,
                            "AllocationEndTime": "2014-02-15 10:00",
                            "RequirementResourceTypeID": 27
                        },
                        {
                            "AssignedResourceID": 89,
                            "RequirementStartTimeDelta": 0,
                            "CertificationRequirementIDs": null,
                            "AllocationStartTime": "2014-02-15 00:00",
                            "RequirementResourceTypeName": "A320 Flight Instructor",
                            "RequirementEndTimeDelta": 0,
                            "ResourceRequirementID": 5822,
                            "AllocationEndTime": "2014-02-15 10:00",
                            "RequirementResourceTypeID": 138
                        },
                        {
                            "AssignedResourceID": 104,
                            "RequirementStartTimeDelta": 0,
                            "CertificationRequirementIDs": null,
                            "AllocationStartTime": "2014-02-15 00:00",
                            "RequirementResourceTypeName": "A320 Ground Instructor",
                            "RequirementEndTimeDelta": 0,
                            "ResourceRequirementID": 5823,
                            "AllocationEndTime": "2014-02-15 10:00",
                            "RequirementResourceTypeID": 162
                        }
                    ]
                }
            ]
        },
        {
            "TrainingProgramEndDate": "2014-02-15 10:00",
            "TrainingProgramStartDate": "2014-02-14 00:00",
            "AnsweredRequests": [
                {
                    "PositionID": 1,
                    "TrainingRequestID": 247,
                    "PositionName": "Captain",
                    "ParticipantID": 7205
                }
            ],
            "ScheduledStatus": true,
            "MasterPlanID": 9528,
            "TrainingRequestID": 247,
            "Events": [
                {
                    "ActivityStartDate": "2014-02-15 00:00",
                    "ActivityID": 4532,
                    "ResourceAllocations": [
                        {
                            "AssignedResourceID": 66,
                            "RequirementStartTimeDelta": 0,
                            "CertificationRequirementIDs": null,
                            "AllocationStartTime": "2014-02-15 00:00",
                            "RequirementResourceTypeName": "A320-FFS",
                            "RequirementEndTimeDelta": 0,
                            "ResourceRequirementID": 5824,
                            "AllocationEndTime": "2014-02-15 10:00",
                            "RequirementResourceTypeID": 160
                        },
                        {
                            "AssignedResourceID": 89,
                            "RequirementStartTimeDelta": 0,
                            "CertificationRequirementIDs": null,
                            "AllocationStartTime": "2014-02-15 00:00",
                            "RequirementResourceTypeName": "A320 Flight Instructor",
                            "RequirementEndTimeDelta": 0,
                            "ResourceRequirementID": 5819,
                            "AllocationEndTime": "2014-02-15 10:00",
                            "RequirementResourceTypeID": 138
                        }
                    ]
                },
                {
                    "ActivityStartDate": "2014-02-14 00:00",
                    "ActivityID": 4533,
                    "ResourceAllocations": [
                        {
                            "AssignedResourceID": 69,
                            "RequirementStartTimeDelta": 0,
                            "CertificationRequirementIDs": null,
                            "AllocationStartTime": "2014-02-14 00:00",
                            "RequirementResourceTypeName": "Rooms",
                            "RequirementEndTimeDelta": 0,
                            "ResourceRequirementID": 5821,
                            "AllocationEndTime": "2014-02-14 10:00",
                            "RequirementResourceTypeID": 27
                        },
                        {
                            "AssignedResourceID": 89,
                            "RequirementStartTimeDelta": 0,
                            "CertificationRequirementIDs": null,
                            "AllocationStartTime": "2014-02-14 00:00",
                            "RequirementResourceTypeName": "A320 Flight Instructor",
                            "RequirementEndTimeDelta": 0,
                            "ResourceRequirementID": 5822,
                            "AllocationEndTime": "2014-02-14 10:00",
                            "RequirementResourceTypeID": 138
                        },
                        {
                            "AssignedResourceID": 104,
                            "RequirementStartTimeDelta": 0,
                            "CertificationRequirementIDs": null,
                            "AllocationStartTime": "2014-02-14 00:00",
                            "RequirementResourceTypeName": "A320 Ground Instructor",
                            "RequirementEndTimeDelta": 0,
                            "ResourceRequirementID": 5823,
                            "AllocationEndTime": "2014-02-14 10:00",
                            "RequirementResourceTypeID": 162
                        }
                    ]
                }
            ]
        }
    ],
    "Pairings": []
}