{
    "TrainingPrograms": [
        {
            "TrainingProgramEndDate": "2012-07-31 07:00",
            "TrainingProgramStartDate": "2012-07-19 00:00",
            "AnsweredRequests": [
                {
                    "PositionID": null,
                    "TrainingRequestID": 100000000,
                    "PositionName": null,
                    "ParticipantID": null
                }
            ],
            "ScheduledStatus": true,
            "MasterPlanID": 6228,
            "TrainingRequestID": 100000000,
            "Events": [
                {
                    "ActivityStartDate": "2012-07-19 00:00",
                    "ActivityID": 2452,
                    "ResourceAllocations": []
                },
                {
                    "ActivityStartDate": "2012-07-31 00:00",
                    "ActivityID": 2453,
                    "ResourceAllocations": []
                },
                {
                    "ActivityStartDate": "2012-07-31 00:00",
                    "ActivityID": 2454,
                    "ResourceAllocations": []
                },
                {
                    "ActivityStartDate": "2012-07-20 00:00",
                    "ActivityID": 2455,
                    "ResourceAllocations": []
                },
                {
                    "ActivityStartDate": "2012-07-27 00:00",
                    "ActivityID": 2456,
                    "ResourceAllocations": []
                },
                {
                    "ActivityStartDate": "2012-07-26 00:00",
                    "ActivityID": 2457,
                    "ResourceAllocations": []
                },
                {
                    "ActivityStartDate": "2012-07-26 00:00",
                    "ActivityID": 2458,
                    "ResourceAllocations": []
                },
                {
                    "ActivityStartDate": "2012-07-28 00:00",
                    "ActivityID": 2459,
                    "ResourceAllocations": []
                },
                {
                    "ActivityStartDate": "2012-07-29 00:00",
                    "ActivityID": 2460,
                    "ResourceAllocations": []
                },
                {
                    "ActivityStartDate": "2012-07-29 00:00",
                    "ActivityID": 2461,
                    "ResourceAllocations": []
                },
                {
                    "ActivityStartDate": "2012-07-27 00:00",
                    "ActivityID": 2462,
                    "ResourceAllocations": []
                },
                {
                    "ActivityStartDate": "2012-07-23 00:00",
                    "ActivityID": 2463,
                    "ResourceAllocations": []
                },
                {
                    "ActivityStartDate": "2012-07-24 00:00",
                    "ActivityID": 2464,
                    "ResourceAllocations": []
                },
                {
                    "ActivityStartDate": "2012-07-23 00:00",
                    "ActivityID": 2465,
                    "ResourceAllocations": []
                },
                {
                    "ActivityStartDate": "2012-07-28 00:00",
                    "ActivityID": 2466,
                    "ResourceAllocations": []
                },
                {
                    "ActivityStartDate": "2012-07-30 00:00",
                    "ActivityID": 2467,
                    "ResourceAllocations": []
                },
                {
                    "ActivityStartDate": "2012-07-22 00:00",
                    "ActivityID": 2468,
                    "ResourceAllocations": []
                },
                {
                    "ActivityStartDate": "2012-07-20 00:00",
                    "ActivityID": 2469,
                    "ResourceAllocations": []
                },
                {
                    "ActivityStartDate": "2012-07-30 00:00",
                    "ActivityID": 2470,
                    "ResourceAllocations": []
                },
                {
                    "ActivityStartDate": "2012-07-24 00:00",
                    "ActivityID": 2471,
                    "ResourceAllocations": []
                },
                {
                    "ActivityStartDate": "2012-07-21 00:00",
                    "ActivityID": 2472,
                    "ResourceAllocations": []
                },
                {
                    "ActivityStartDate": "2012-07-25 00:00",
                    "ActivityID": 2473,
                    "ResourceAllocations": []
                },
                {
                    "ActivityStartDate": "2012-07-21 00:00",
                    "ActivityID": 2474,
                    "ResourceAllocations": []
                },
                {
                    "ActivityStartDate": "2012-07-22 00:00",
                    "ActivityID": 2475,
                    "ResourceAllocations": []
                },
                {
                    "ActivityStartDate": "2012-07-25 00:00",
                    "ActivityID": 2476,
                    "ResourceAllocations": []
                },
                {
                    "ActivityStartDate": "2012-07-21 00:00",
                    "ActivityID": 2477,
                    "ResourceAllocations": []
                },
                {
                    "ActivityStartDate": "2012-07-25 00:00",
                    "ActivityID": 2478,
                    "ResourceAllocations": []
                }
            ]
        },
        {
            "TrainingProgramEndDate": "2012-07-31 07:00",
            "TrainingProgramStartDate": "2012-07-19 00:00",
            "AnsweredRequests": [
                {
                    "PositionID": null,
                    "TrainingRequestID": 100000001,
                    "PositionName": null,
                    "ParticipantID": null
                }
            ],
            "ScheduledStatus": true,
            "MasterPlanID": 6228,
            "TrainingRequestID": 100000001,
            "Events": [
                {
                    "ActivityStartDate": "2012-07-25 00:00",
                    "ActivityID": 2452,
                    "ResourceAllocations": []
                },
                {
                    "ActivityStartDate": "2012-07-21 00:00",
                    "ActivityID": 2453,
                    "ResourceAllocations": []
                },
                {
                    "ActivityStartDate": "2012-07-19 00:00",
                    "ActivityID": 2454,
                    "ResourceAllocations": []
                },
                {
                    "ActivityStartDate": "2012-07-21 00:00",
                    "ActivityID": 2455,
                    "ResourceAllocations": []
                },
                {
                    "ActivityStartDate": "2012-07-27 00:00",
                    "ActivityID": 2456,
                    "ResourceAllocations": []
                },
                {
                    "ActivityStartDate": "2012-07-24 00:00",
                    "ActivityID": 2457,
                    "ResourceAllocations": []
                },
                {
                    "ActivityStartDate": "2012-07-23 00:00",
                    "ActivityID": 2458,
                    "ResourceAllocations": []
                },
                {
                    "ActivityStartDate": "2012-07-26 00:00",
                    "ActivityID": 2459,
                    "ResourceAllocations": []
                },
                {
                    "ActivityStartDate": "2012-07-23 00:00",
                    "ActivityID": 2460,
                    "ResourceAllocations": []
                },
                {
                    "ActivityStartDate": "2012-07-31 00:00",
                    "ActivityID": 2461,
                    "ResourceAllocations": []
                },
                {
                    "ActivityStartDate": "2012-07-29 00:00",
                    "ActivityID": 2462,
                    "ResourceAllocations": []
                },
                {
                    "ActivityStartDate": "2012-07-19 00:00",
                    "ActivityID": 2463,
                    "ResourceAllocations": []
                },
                {
                    "ActivityStartDate": "2012-07-22 00:00",
                    "ActivityID": 2464,
                    "ResourceAllocations": []
                },
                {
                    "ActivityStartDate": "2012-07-20 00:00",
                    "ActivityID": 2465,
                    "ResourceAllocations": []
                },
                {
                    "ActivityStartDate": "2012-07-27 00:00",
                    "ActivityID": 2466,
                    "ResourceAllocations": []
                },
                {
                    "ActivityStartDate": "2012-07-20 00:00",
                    "ActivityID": 2467,
                    "ResourceAllocations": []
                },
                {
                    "ActivityStartDate": "2012-07-25 00:00",
                    "ActivityID": 2468,
                    "ResourceAllocations": []
                },
                {
                    "ActivityStartDate": "2012-07-28 00:00",
                    "ActivityID": 2469,
                    "ResourceAllocations": []
                },
                {
                    "ActivityStartDate": "2012-07-22 00:00",
                    "ActivityID": 2470,
                    "ResourceAllocations": []
                },
                {
                    "ActivityStartDate": "2012-07-29 00:00",
                    "ActivityID": 2471,
                    "ResourceAllocations": []
                },
                {
                    "ActivityStartDate": "2012-07-28 00:00",
                    "ActivityID": 2472,
                    "ResourceAllocations": []
                },
                {
                    "ActivityStartDate": "2012-07-24 00:00",
                    "ActivityID": 2473,
                    "ResourceAllocations": []
                },
                {
                    "ActivityStartDate": "2012-07-30 00:00",
                    "ActivityID": 2474,
                    "ResourceAllocations": []
                },
                {
                    "ActivityStartDate": "2012-07-30 00:00",
                    "ActivityID": 2475,
                    "ResourceAllocations": []
                },
                {
                    "ActivityStartDate": "2012-07-31 00:00",
                    "ActivityID": 2476,
                    "ResourceAllocations": []
                },
                {
                    "ActivityStartDate": "2012-07-30 00:00",
                    "ActivityID": 2477,
                    "ResourceAllocations": []
                },
                {
                    "ActivityStartDate": "2012-07-26 00:00",
                    "ActivityID": 2478,
                    "ResourceAllocations": []
                }
            ]
        },
        {
            "TrainingProgramEndDate": "2012-07-31 07:00",
            "TrainingProgramStartDate": "2012-07-19 00:00",
            "AnsweredRequests": [
                {
                    "PositionID": null,
                    "TrainingRequestID": 100000002,
                    "PositionName": null,
                    "ParticipantID": null
                }
            ],
            "ScheduledStatus": true,
            "MasterPlanID": 6228,
            "TrainingRequestID": 100000002,
            "Events": [
                {
                    "ActivityStartDate": "2012-07-31 00:00",
                    "ActivityID": 2452,
                    "ResourceAllocations": []
                },
                {
                    "ActivityStartDate": "2012-07-26 00:00",
                    "ActivityID": 2453,
                    "ResourceAllocations": []
                },
                {
                    "ActivityStartDate": "2012-07-29 00:00",
                    "ActivityID": 2454,
                    "ResourceAllocations": []
                },
                {
                    "ActivityStartDate": "2012-07-19 00:00",
                    "ActivityID": 2455,
                    "ResourceAllocations": []
                },
                {
                    "ActivityStartDate": "2012-07-23 00:00",
                    "ActivityID": 2456,
                    "ResourceAllocations": []
                },
                {
                    "ActivityStartDate": "2012-07-25 00:00",
                    "ActivityID": 2457,
                    "ResourceAllocations": []
                },
                {
                    "ActivityStartDate": "2012-07-23 00:00",
                    "ActivityID": 2458,
                    "ResourceAllocations": []
                },
                {
                    "ActivityStartDate": "2012-07-22 00:00",
                    "ActivityID": 2459,
                    "ResourceAllocations": []
                },
                {
                    "ActivityStartDate": "2012-07-28 00:00",
                    "ActivityID": 2460,
                    "ResourceAllocations": []
                },
                {
                    "ActivityStartDate": "2012-07-28 00:00",
                    "ActivityID": 2461,
                    "ResourceAllocations": []
                },
                {
                    "ActivityStartDate": "2012-07-30 00:00",
                    "ActivityID": 2462,
                    "ResourceAllocations": []
                },
                {
                    "ActivityStartDate": "2012-07-21 00:00",
                    "ActivityID": 2463,
                    "ResourceAllocations": []
                },
                {
                    "ActivityStartDate": "2012-07-26 00:00",
                    "ActivityID": 2464,
                    "ResourceAllocations": []
                },
                {
                    "ActivityStartDate": "2012-07-24 00:00",
                    "ActivityID": 2465,
                    "ResourceAllocations": []
                },
                {
                    "ActivityStartDate": "2012-07-29 00:00",
                    "ActivityID": 2466,
                    "ResourceAllocations": []
                },
                {
                    "ActivityStartDate": "2012-07-20 00:00",
                    "ActivityID": 2467,
                    "ResourceAllocations": []
                },
                {
                    "ActivityStartDate": "2012-07-21 00:00",
                    "ActivityID": 2468,
                    "ResourceAllocations": []
                },
                {
                    "ActivityStartDate": "2012-07-20 00:00",
                    "ActivityID": 2469,
                    "ResourceAllocations": []
                },
                {
                    "ActivityStartDate": "2012-07-30 00:00",
                    "ActivityID": 2470,
                    "ResourceAllocations": []
                },
                {
                    "ActivityStartDate": "2012-07-24 00:00",
                    "ActivityID": 2471,
                    "ResourceAllocations": []
                },
                {
                    "ActivityStartDate": "2012-07-27 00:00",
                    "ActivityID": 2472,
                    "ResourceAllocations": []
                },
                {
                    "ActivityStartDate": "2012-07-25 00:00",
                    "ActivityID": 2473,
                    "ResourceAllocations": []
                },
                {
                    "ActivityStartDate": "2012-07-22 00:00",
                    "ActivityID": 2474,
                    "ResourceAllocations": []
                },
                {
                    "ActivityStartDate": "2012-07-31 00:00",
                    "ActivityID": 2475,
                    "ResourceAllocations": []
                },
                {
                    "ActivityStartDate": "2012-07-27 00:00",
                    "ActivityID": 2476,
                    "ResourceAllocations": []
                },
                {
                    "ActivityStartDate": "2012-07-19 00:00",
                    "ActivityID": 2477,
                    "ResourceAllocations": []
                },
                {
                    "ActivityStartDate": "2012-07-27 00:00",
                    "ActivityID": 2478,
                    "ResourceAllocations": []
                }
            ]
        },
        {
            "TrainingProgramEndDate": "2012-07-31 07:00",
            "TrainingProgramStartDate": "2012-07-19 00:00",
            "AnsweredRequests": [
                {
                    "PositionID": null,
                    "TrainingRequestID": 100000003,
                    "PositionName": null,
                    "ParticipantID": null
                }
            ],
            "ScheduledStatus": true,
            "MasterPlanID": 6228,
            "TrainingRequestID": 100000003,
            "Events": [
                {
                    "ActivityStartDate": "2012-07-23 00:00",
                    "ActivityID": 2452,
                    "ResourceAllocations": []
                },
                {
                    "ActivityStartDate": "2012-07-29 00:00",
                    "ActivityID": 2453,
                    "ResourceAllocations": []
                },
                {
                    "ActivityStartDate": "2012-07-23 00:00",
                    "ActivityID": 2454,
                    "ResourceAllocations": []
                },
                {
                    "ActivityStartDate": "2012-07-28 00:00",
                    "ActivityID": 2455,
                    "ResourceAllocations": []
                },
                {
                    "ActivityStartDate": "2012-07-26 00:00",
                    "ActivityID": 2456,
                    "ResourceAllocations": []
                },
                {
                    "ActivityStartDate": "2012-07-27 00:00",
                    "ActivityID": 2457,
                    "ResourceAllocations": []
                },
                {
                    "ActivityStartDate": "2012-07-28 00:00",
                    "ActivityID": 2458,
                    "ResourceAllocations": []
                },
                {
                    "ActivityStartDate": "2012-07-31 00:00",
                    "ActivityID": 2459,
                    "ResourceAllocations": []
                },
                {
                    "ActivityStartDate": "2012-07-30 00:00",
                    "ActivityID": 2460,
                    "ResourceAllocations": []
                },
                {
                    "ActivityStartDate": "2012-07-26 00:00",
                    "ActivityID": 2461,
                    "ResourceAllocations": []
                },
                {
                    "ActivityStartDate": "2012-07-25 00:00",
                    "ActivityID": 2462,
                    "ResourceAllocations": []
                },
                {
                    "ActivityStartDate": "2012-07-21 00:00",
                    "ActivityID": 2463,
                    "ResourceAllocations": []
                },
                {
                    "ActivityStartDate": "2012-07-31 00:00",
                    "ActivityID": 2464,
                    "ResourceAllocations": []
                },
                {
                    "ActivityStartDate": "2012-07-30 00:00",
                    "ActivityID": 2465,
                    "ResourceAllocations": []
                },
                {
                    "ActivityStartDate": "2012-07-22 00:00",
                    "ActivityID": 2466,
                    "ResourceAllocations": []
                },
                {
                    "ActivityStartDate": "2012-07-25 00:00",
                    "ActivityID": 2467,
                    "ResourceAllocations": []
                },
                {
                    "ActivityStartDate": "2012-07-22 00:00",
                    "ActivityID": 2468,
                    "ResourceAllocations": []
                },
                {
                    "ActivityStartDate": "2012-07-29 00:00",
                    "ActivityID": 2469,
                    "ResourceAllocations": []
                },
                {
                    "ActivityStartDate": "2012-07-19 00:00",
                    "ActivityID": 2470,
                    "ResourceAllocations": []
                },
                {
                    "ActivityStartDate": "2012-07-21 00:00",
                    "ActivityID": 2471,
                    "ResourceAllocations": []
                },
                {
                    "ActivityStartDate": "2012-07-24 00:00",
                    "ActivityID": 2472,
                    "ResourceAllocations": []
                },
                {
                    "ActivityStartDate": "2012-07-20 00:00",
                    "ActivityID": 2473,
                    "ResourceAllocations": []
                },
                {
                    "ActivityStartDate": "2012-07-24 00:00",
                    "ActivityID": 2474,
                    "ResourceAllocations": []
                },
                {
                    "ActivityStartDate": "2012-07-19 00:00",
                    "ActivityID": 2475,
                    "ResourceAllocations": []
                },
                {
                    "ActivityStartDate": "2012-07-27 00:00",
                    "ActivityID": 2476,
                    "ResourceAllocations": []
                },
                {
                    "ActivityStartDate": "2012-07-24 00:00",
                    "ActivityID": 2477,
                    "ResourceAllocations": []
                },
                {
                    "ActivityStartDate": "2012-07-20 00:00",
                    "ActivityID": 2478,
                    "ResourceAllocations": []
                }
            ]
        }
    ],
    "Pairings": []
}